cardiff-b0/simWorkspace/booth4/test.vcd
$version Generated by VerilatedVcd $end
$date Wed Dec 22 17:39:46 2021
 $end
$timescale   1ps $end

 $scope module TOP $end
  $var wire  1 4 clk $end
  $var wire  8 0 io_dinA [7:0] $end
  $var wire  8 1 io_dinB [7:0] $end
  $var wire  1 / io_din_vld $end
  $var wire 16 3 io_dout [15:0] $end
  $var wire  1 2 io_dout_vld $end
  $var wire  1 5 reset $end
  $scope module booth4 $end
   $var wire  9 ( Add2B [8:0] $end
   $var wire  9 ' AddB [8:0] $end
   $var wire  9 * Minus2B [8:0] $end
   $var wire  9 ) MinusB [8:0] $end
   $var wire  9 $ Negative2B [8:0] $end
   $var wire  9 # NegativeB [8:0] $end
   $var wire  9 & Positive2B [8:0] $end
   $var wire  9 % PositiveB [8:0] $end
   $var wire  2 - cal_cnt [1:0] $end
   $var wire  1 . cal_en $end
   $var wire  1 6 cal_en_regNext $end
   $var wire  1 4 clk $end
   $var wire  3 , flag_bits [2:0] $end
   $var wire  8 0 io_dinA [7:0] $end
   $var wire  8 1 io_dinB [7:0] $end
   $var wire  1 / io_din_vld $end
   $var wire 16 3 io_dout [15:0] $end
   $var wire  1 2 io_dout_vld $end
   $var wire  1 5 reset $end
   $var wire 18 + shiftReg [17:0] $end
  $upscope $end
 $upscope $end
$enddefinitions $end


#0
b110111011 #
b101110110 $
b001000101 %
b010001010 &
b001000101 '
b010001010 (
b110111011 )
b101110110 *
b000000000000000000 +
b000 ,
b00 -
0.
0/
b11010111 0
b01000101 1
02
b0000000000000000 3
04
15
06
#80
05
#85
14
#87
04
#89
14
#91
04
#93
14
#95
04
#97
14
#99
04
#100
#101
b110100101 #
b101001010 $
b001011011 %
b010110110 &
b001011011 '
b010110110 (
b110100101 )
b101001010 *
1/
b00110111 0
b01011011 1
14
#103
04
#105
b000000000001101110 +
b110 ,
1.
0/
b0000000000110111 3
14
#107
04
#109
b001000100 '
b010011111 (
b110001110 )
b100110011 *
b111101001010011011 +
b011 ,
b01 -
b1110100101001101 3
14
16
#111
04
#113
b010000010 '
b011011101 (
b111001100 )
b101110001 *
b000100111110100110 +
b110 ,
b10 -
b0010011111010011 3
14
#115
04
#117
b001001110 '
b010101001 (
b110011000 )
b100111101 *
b111110011001101001 +
b001 ,
b11 -
b1111001100110100 3
14
#119
04
#121
b001101110 '
b011001001 (
b110111000 )
b101011101 *
b000010011100011010 +
b010 ,
b00 -
0.
12
b0001001110001101 3
14
#123
04
#125
02
14
06
