cardiff-b0/simWorkspace/booth4/test.vcd
$version Generated by VerilatedVcd $end
$date Tue Dec 21 16:34:10 2021
 $end
$timescale   1ps $end

 $scope module TOP $end
  $var wire  1 4 clk $end
  $var wire  8 0 io_dinA [7:0] $end
  $var wire  8 1 io_dinB [7:0] $end
  $var wire  1 / io_din_vld $end
  $var wire 16 3 io_dout [15:0] $end
  $var wire  1 2 io_dout_vld $end
  $var wire  1 5 reset $end
  $scope module booth4 $end
   $var wire 10 ( Add2B [9:0] $end
   $var wire 10 ' AddB [9:0] $end
   $var wire 10 * Minus2B [9:0] $end
   $var wire 10 ) MinusB [9:0] $end
   $var wire 10 $ Negative2B [9:0] $end
   $var wire 10 # NegativeB [9:0] $end
   $var wire 10 & Positive2B [9:0] $end
   $var wire 10 % PositiveB [9:0] $end
   $var wire  2 - cal_cnt [1:0] $end
   $var wire  1 . cal_en $end
   $var wire  1 6 cal_en_regNext $end
   $var wire  1 4 clk $end
   $var wire  3 , flag_bits [2:0] $end
   $var wire  8 0 io_dinA [7:0] $end
   $var wire  8 1 io_dinB [7:0] $end
   $var wire  1 / io_din_vld $end
   $var wire 16 3 io_dout [15:0] $end
   $var wire  1 2 io_dout_vld $end
   $var wire  1 5 reset $end
   $var wire 19 + shiftReg [18:0] $end
  $upscope $end
 $upscope $end
$enddefinitions $end


#0
b1110111110 #
b1101111100 $
b0001000010 %
b0010000100 &
b0001000010 '
b0010000100 (
b1110111110 )
b1101111100 *
b0000000000000000000 +
b000 ,
b00 -
0.
0/
b11111011 0
b01000010 1
02
b0000000000000000 3
04
15
06
#80
05
#85
14
#87
04
#89
14
#91
04
#93
14
#95
04
#97
14
#99
04
#100
#101
b1110100101 #
b1101001010 $
b0001011011 %
b0010110110 &
b0001011011 '
b0010110110 (
b1110100101 )
b1101001010 *
1/
b00110111 0
b01011011 1
14
#103
04
#105
b0000000000001101110 +
b110 ,
1.
0/
b0000000000110111 3
14
#107
04
#109
b0001000100 '
b0010011111 (
b1110001110 )
b1100110011 *
b1111101001010011011 +
b011 ,
b01 -
b1110100101001101 3
14
16
#111
04
#113
b0010000010 '
b0011011101 (
b1111001100 )
b1101110001 *
b0000100111110100110 +
b110 ,
b10 -
b0010011111010011 3
14
#115
04
#117
b0001001110 '
b0010101001 (
b1110011000 )
b1100111101 *
b1111110011001101001 +
b001 ,
b11 -
b1111001100110100 3
14
#119
04
#121
b0001101110 '
b0011001001 (
b1110111000 )
b1101011101 *
b0000010011100011010 +
b010 ,
b00 -
0.
12
b0001001110001101 3
14
#123
04
#125
02
14
06
