cardiff-b0/simWorkspace/booth4/test.vcd
$version Generated by VerilatedVcd $end
$date Mon Dec 20 18:20:59 2021
 $end
$timescale   1ps $end

 $scope module TOP $end
  $var wire  1 0 clk $end
  $var wire  8 , io_dinA [7:0] $end
  $var wire  8 - io_dinB [7:0] $end
  $var wire  1 + io_din_vld $end
  $var wire 16 / io_dout [15:0] $end
  $var wire  1 . io_dout_vld $end
  $var wire  1 1 reset $end
  $scope module booth4 $end
   $var wire  8 ( Add2B [7:0] $end
   $var wire  8 ' AddB [7:0] $end
   $var wire  8 * Minus2B [7:0] $end
   $var wire  8 ) MinusB [7:0] $end
   $var wire  8 3 Negative2B [7:0] $end
   $var wire  8 2 NegativeB [7:0] $end
   $var wire  8 4 Positive2B [7:0] $end
   $var wire  8 - PositiveB [7:0] $end
   $var wire  2 % cal_cnt [1:0] $end
   $var wire  1 & cal_en $end
   $var wire  1 5 cal_en_regNext $end
   $var wire  1 0 clk $end
   $var wire  3 $ flag_bits [2:0] $end
   $var wire  8 , io_dinA [7:0] $end
   $var wire  8 - io_dinB [7:0] $end
   $var wire  1 + io_din_vld $end
   $var wire 16 / io_dout [15:0] $end
   $var wire  1 . io_dout_vld $end
   $var wire  1 1 reset $end
   $var wire 17 # shiftReg [16:0] $end
  $upscope $end
 $upscope $end
$enddefinitions $end


#0
b00000000000000000 #
b000 $
b00 %
0&
b01101010 '
b11010100 (
b10010110 )
b00101100 *
0+
b01100001 ,
b01101010 -
1.
b0000000000000000 /
00
11
b10010110 2
b00101100 3
b11010100 4
15
#80
01
#85
0.
10
05
#87
00
#89
10
#91
00
#93
10
#95
00
#97
10
#99
00
#100
#101
b00010110 '
b00101100 (
b11101010 )
b11010100 *
1+
b11011110 ,
b00010110 -
10
b11101010 2
b11010100 3
b00101100 4
#103
00
#105
b00000000110111100 #
b100 $
1&
0+
b0000000011011110 /
10
#107
00
#109
b11110101001101111 #
b111 $
b01 %
b00001011 '
b00100001 (
b11011111 )
b11001001 *
b1111010100110111 /
10
15
#111
00
#113
b11111101010011011 #
b011 $
b10 %
b00010011 '
b00101001 (
b11100111 )
b11010001 *
b1111110101001101 /
10
#115
00
#117
b00001010010100110 #
b110 $
b11 %
b00100000 '
b00110110 (
b11110100 )
b11011110 *
b0000101001010011 /
10
#119
00
#121
b11111101000101001 #
b001 $
b00 %
0&
b00010011 '
b00101001 (
b11100111 )
b11010001 *
1.
b1111110100010100 /
10
#123
00
#125
0.
10
05
