cardiff-b0/simWorkspace/cal_phase/test.vcd
$version Generated by VerilatedVcd $end
$date Tue Dec 21 18:29:25 2021
 $end
$timescale   1ps $end

 $scope module TOP $end
  $var wire  1 &! clk $end
  $var wire 10 %! phase [9:0] $end
  $var wire  1 $! phase_vld $end
  $var wire  1 '! reset $end
  $var wire  1 d rg_bypass_mean $end
  $var wire  1 c rg_calphase_en $end
  $var wire  3 e rg_cordic_iternum [2:0] $end
  $var wire  8 v rg_cos_table_0 [7:0] $end
  $var wire  8 w rg_cos_table_1 [7:0] $end
  $var wire  8 x rg_cos_table_2 [7:0] $end
  $var wire  8 y rg_cos_table_3 [7:0] $end
  $var wire  8 z rg_cos_table_4 [7:0] $end
  $var wire  8 { rg_cos_table_5 [7:0] $end
  $var wire  8 | rg_cos_table_6 [7:0] $end
  $var wire  8 } rg_cos_table_7 [7:0] $end
  $var wire  8 f rg_leakage_table_0 [7:0] $end
  $var wire  8 g rg_leakage_table_1 [7:0] $end
  $var wire  8 h rg_leakage_table_2 [7:0] $end
  $var wire  8 i rg_leakage_table_3 [7:0] $end
  $var wire  8 j rg_leakage_table_4 [7:0] $end
  $var wire  8 k rg_leakage_table_5 [7:0] $end
  $var wire  8 l rg_leakage_table_6 [7:0] $end
  $var wire  8 m rg_leakage_table_7 [7:0] $end
  $var wire  8 n rg_sin_table_0 [7:0] $end
  $var wire  8 o rg_sin_table_1 [7:0] $end
  $var wire  8 p rg_sin_table_2 [7:0] $end
  $var wire  8 q rg_sin_table_3 [7:0] $end
  $var wire  8 r rg_sin_table_4 [7:0] $end
  $var wire  8 s rg_sin_table_5 [7:0] $end
  $var wire  8 t rg_sin_table_6 [7:0] $end
  $var wire  8 u rg_sin_table_7 [7:0] $end
  $var wire  3 ~ valid_num [2:0] $end
  $var wire  8 "! vin1 [7:0] $end
  $var wire  8 #! vin2 [7:0] $end
  $var wire  1 !! vin_vld $end
  $scope module cal_phase $end
   $var wire  1 8 calvn_finish $end
   $var wire  1 8 calvn_finish_1 $end
   $var wire  8 / calvn_mean [7:0] $end
   $var wire  8 0 calvn_vn_0 [7:0] $end
   $var wire  8 1 calvn_vn_1 [7:0] $end
   $var wire  8 2 calvn_vn_2 [7:0] $end
   $var wire  8 3 calvn_vn_3 [7:0] $end
   $var wire  8 4 calvn_vn_4 [7:0] $end
   $var wire  8 5 calvn_vn_5 [7:0] $end
   $var wire  8 6 calvn_vn_6 [7:0] $end
   $var wire  8 7 calvn_vn_7 [7:0] $end
   $var wire  1 &! clk $end
   $var wire 10 . cordic_res [9:0] $end
   $var wire  1 < cordic_res_vld $end
   $var wire 16 9 dot_psum_out1 [15:0] $end
   $var wire 16 : dot_psum_out2 [15:0] $end
   $var wire  1 ; dot_psum_vld $end
   $var wire  8 / mean [7:0] $end
   $var wire 10 . ph_cal [9:0] $end
   $var wire  1 (! ph_vld $end
   $var wire 10 . phase [9:0] $end
   $var wire  1 (! phase_vld $end
   $var wire 16 9 psum_out1 [15:0] $end
   $var wire 16 : psum_out2 [15:0] $end
   $var wire  1 ; psum_vld $end
   $var wire  1 '! reset $end
   $var wire  1 d rg_bypass_mean $end
   $var wire  1 c rg_calphase_en $end
   $var wire  3 e rg_cordic_iternum [2:0] $end
   $var wire  8 v rg_cos_table_0 [7:0] $end
   $var wire  8 w rg_cos_table_1 [7:0] $end
   $var wire  8 x rg_cos_table_2 [7:0] $end
   $var wire  8 y rg_cos_table_3 [7:0] $end
   $var wire  8 z rg_cos_table_4 [7:0] $end
   $var wire  8 { rg_cos_table_5 [7:0] $end
   $var wire  8 | rg_cos_table_6 [7:0] $end
   $var wire  8 } rg_cos_table_7 [7:0] $end
   $var wire  8 f rg_leakage_table_0 [7:0] $end
   $var wire  8 g rg_leakage_table_1 [7:0] $end
   $var wire  8 h rg_leakage_table_2 [7:0] $end
   $var wire  8 i rg_leakage_table_3 [7:0] $end
   $var wire  8 j rg_leakage_table_4 [7:0] $end
   $var wire  8 k rg_leakage_table_5 [7:0] $end
   $var wire  8 l rg_leakage_table_6 [7:0] $end
   $var wire  8 m rg_leakage_table_7 [7:0] $end
   $var wire  8 n rg_sin_table_0 [7:0] $end
   $var wire  8 o rg_sin_table_1 [7:0] $end
   $var wire  8 p rg_sin_table_2 [7:0] $end
   $var wire  8 q rg_sin_table_3 [7:0] $end
   $var wire  8 r rg_sin_table_4 [7:0] $end
   $var wire  8 s rg_sin_table_5 [7:0] $end
   $var wire  8 t rg_sin_table_6 [7:0] $end
   $var wire  8 u rg_sin_table_7 [7:0] $end
   $var wire  3 ~ valid_num [2:0] $end
   $var wire  3 )! valid_num_true [2:0] $end
   $var wire  8 "! vin1 [7:0] $end
   $var wire  8 #! vin2 [7:0] $end
   $var wire  1 !! vin_vld $end
   $var wire  8 0 vn_0 [7:0] $end
   $var wire  8 1 vn_1 [7:0] $end
   $var wire  8 2 vn_2 [7:0] $end
   $var wire  8 3 vn_3 [7:0] $end
   $var wire  8 4 vn_4 [7:0] $end
   $var wire  8 5 vn_5 [7:0] $end
   $var wire  8 6 vn_6 [7:0] $end
   $var wire  8 7 vn_7 [7:0] $end
   $scope module calvn $end
    $var wire  8 0 Vins_0 [7:0] $end
    $var wire  8 1 Vins_1 [7:0] $end
    $var wire  8 2 Vins_2 [7:0] $end
    $var wire  8 3 Vins_3 [7:0] $end
    $var wire  8 4 Vins_4 [7:0] $end
    $var wire  8 5 Vins_5 [7:0] $end
    $var wire  8 6 Vins_6 [7:0] $end
    $var wire  8 7 Vins_7 [7:0] $end
    $var wire  8 # bigger [7:0] $end
    $var wire  1 &! clk $end
    $var wire  1 & data_load_finish $end
    $var wire  1 c en $end
    $var wire  1 8 finish $end
    $var wire  8 > max_v [7:0] $end
    $var wire  8 / mean [7:0] $end
    $var wire  1 *! mean_finish $end
    $var wire  1 8 mean_finish_regNext $end
    $var wire  8 ? min_v [7:0] $end
    $var wire  1 '! reset $end
    $var wire  1 d rg_bypass_mean $end
    $var wire  8 f rg_leakage_table_0 [7:0] $end
    $var wire  8 g rg_leakage_table_1 [7:0] $end
    $var wire  8 h rg_leakage_table_2 [7:0] $end
    $var wire  8 i rg_leakage_table_3 [7:0] $end
    $var wire  8 j rg_leakage_table_4 [7:0] $end
    $var wire  8 k rg_leakage_table_5 [7:0] $end
    $var wire  8 l rg_leakage_table_6 [7:0] $end
    $var wire  8 m rg_leakage_table_7 [7:0] $end
    $var wire  8 $ smaller [7:0] $end
    $var wire  1 % v1gtv2 $end
    $var wire  3 = v_cnt [2:0] $end
    $var wire  3 ~ valid_num [2:0] $end
    $var wire  8 "! vin1 [7:0] $end
    $var wire  8 #! vin2 [7:0] $end
    $var wire  1 !! vin_vld $end
    $var wire  8 0 vn_0 [7:0] $end
    $var wire  8 1 vn_1 [7:0] $end
    $var wire  8 2 vn_2 [7:0] $end
    $var wire  8 3 vn_3 [7:0] $end
    $var wire  8 4 vn_4 [7:0] $end
    $var wire  8 5 vn_5 [7:0] $end
    $var wire  8 6 vn_6 [7:0] $end
    $var wire  8 7 vn_7 [7:0] $end
   $upscope $end
   $scope module cordic $end
    $var wire  7 1! KAngle_0 [6:0] $end
    $var wire  7 2! KAngle_1 [6:0] $end
    $var wire  7 3! KAngle_2 [6:0] $end
    $var wire  7 4! KAngle_3 [6:0] $end
    $var wire  7 5! KAngle_4 [6:0] $end
    $var wire  7 6! KAngle_5 [6:0] $end
    $var wire  7 6! KAngle_6 [6:0] $end
    $var wire  3 [ cal_cnt [2:0] $end
    $var wire  1 \ cal_en $end
    $var wire  1 _ cal_en_regNext $end
    $var wire  1 - cal_finish $end
    $var wire  1 b cal_finish_delay $end
    $var wire  1 ] cal_start $end
    $var wire  1 &! clk $end
    $var wire  1 c en $end
    $var wire  1 < finish $end
    $var wire  1 ^ nozero_flg $end
    $var wire 10 . res [9:0] $end
    $var wire 10 . res_out [9:0] $end
    $var wire 11 V res_rg [10:0] $end
    $var wire  1 < res_vld $end
    $var wire  1 '! reset $end
    $var wire  3 e rg_cordic_iternum [2:0] $end
    $var wire  1 ; vld $end
    $var wire 16 9 x [15:0] $end
    $var wire 19 W x_ext [18:0] $end
    $var wire 19 Y x_ins [18:0] $end
    $var wire 19 T xn [18:0] $end
    $var wire 19 ` xn_rightshift [18:0] $end
    $var wire 16 : y [15:0] $end
    $var wire 19 X y_ext [18:0] $end
    $var wire 19 Z y_ins [18:0] $end
    $var wire 19 U yn [18:0] $end
    $var wire 19 a yn_rightshift [18:0] $end
   $upscope $end
   $scope module dot $end
    $var wire 16 B booth_cos_io_dout [15:0] $end
    $var wire  1 +! booth_cos_io_dout_vld $end
    $var wire 16 A booth_sin_io_dout [15:0] $end
    $var wire  1 @ booth_sin_io_dout_vld $end
    $var wire  1 K booth_start $end
    $var wire  1 &! clk $end
    $var wire  1 c en $end
    $var wire  1 ; finish $end
    $var wire  3 H mac_cnt [2:0] $end
    $var wire  1 I mac_en $end
    $var wire  1 ,! mac_finish $end
    $var wire  1 J mac_start $end
    $var wire  8 / mean [7:0] $end
    $var wire  1 @ mul_done $end
    $var wire 16 A product1 [15:0] $end
    $var wire 16 B product2 [15:0] $end
    $var wire 19 E psum1 [18:0] $end
    $var wire 19 F psum2 [18:0] $end
    $var wire 16 9 psum_out1 [15:0] $end
    $var wire 16 : psum_out2 [15:0] $end
    $var wire  1 ; psum_vld $end
    $var wire  1 '! reset $end
    $var wire  8 v rg_cos_table_0 [7:0] $end
    $var wire  8 w rg_cos_table_1 [7:0] $end
    $var wire  8 x rg_cos_table_2 [7:0] $end
    $var wire  8 y rg_cos_table_3 [7:0] $end
    $var wire  8 z rg_cos_table_4 [7:0] $end
    $var wire  8 { rg_cos_table_5 [7:0] $end
    $var wire  8 | rg_cos_table_6 [7:0] $end
    $var wire  8 } rg_cos_table_7 [7:0] $end
    $var wire  8 n rg_sin_table_0 [7:0] $end
    $var wire  8 o rg_sin_table_1 [7:0] $end
    $var wire  8 p rg_sin_table_2 [7:0] $end
    $var wire  8 q rg_sin_table_3 [7:0] $end
    $var wire  8 r rg_sin_table_4 [7:0] $end
    $var wire  8 s rg_sin_table_5 [7:0] $end
    $var wire  8 t rg_sin_table_6 [7:0] $end
    $var wire  8 u rg_sin_table_7 [7:0] $end
    $var wire 19 C s1 [18:0] $end
    $var wire 19 D s2 [18:0] $end
    $var wire  3 )! valid_num [2:0] $end
    $var wire  8 G vin_minus_mean [7:0] $end
    $var wire  8 G vin_true_in [7:0] $end
    $var wire  8 0 vn_in_0 [7:0] $end
    $var wire  8 1 vn_in_1 [7:0] $end
    $var wire  8 2 vn_in_2 [7:0] $end
    $var wire  8 3 vn_in_3 [7:0] $end
    $var wire  8 4 vn_in_4 [7:0] $end
    $var wire  8 5 vn_in_5 [7:0] $end
    $var wire  8 6 vn_in_6 [7:0] $end
    $var wire  8 7 vn_in_7 [7:0] $end
    $var wire  1 8 vn_vld $end
    $scope module booth_cos $end
     $var wire  8 + NegativeB [7:0] $end
     $var wire  8 /! addMux [7:0] $end
     $var wire  3 R cal_cnt [2:0] $end
     $var wire  1 S cal_en $end
     $var wire  1 0! cal_en_regNext $end
     $var wire  1 &! clk $end
     $var wire  2 Q flag_bits [1:0] $end
     $var wire  8 G io_dinA [7:0] $end
     $var wire  8 * io_dinB [7:0] $end
     $var wire  1 K io_din_vld $end
     $var wire 16 B io_dout [15:0] $end
     $var wire  1 +! io_dout_vld $end
     $var wire  1 '! reset $end
     $var wire 17 P shiftReg [16:0] $end
     $var wire  8 , sumShiftB [7:0] $end
    $upscope $end
    $scope module booth_sin $end
     $var wire  8 ( NegativeB [7:0] $end
     $var wire  8 -! addMux [7:0] $end
     $var wire  3 N cal_cnt [2:0] $end
     $var wire  1 O cal_en $end
     $var wire  1 .! cal_en_regNext $end
     $var wire  1 &! clk $end
     $var wire  2 M flag_bits [1:0] $end
     $var wire  8 G io_dinA [7:0] $end
     $var wire  8 ' io_dinB [7:0] $end
     $var wire  1 K io_din_vld $end
     $var wire 16 A io_dout [15:0] $end
     $var wire  1 @ io_dout_vld $end
     $var wire  1 '! reset $end
     $var wire 17 L shiftReg [16:0] $end
     $var wire  8 ) sumShiftB [7:0] $end
    $upscope $end
   $upscope $end
  $upscope $end
 $upscope $end
$enddefinitions $end


#0
b11110101 #
b10111110 $
1%
0&
b00101100 '
b11010100 (
b00101100 )
b11100101 *
b00011011 +
b11100101 ,
0-
b0000000000 .
b00000000 /
b00000000 0
b00000000 1
b00000000 2
b00000000 3
b00000000 4
b00000000 5
b00000000 6
b00000000 7
08
b0000000000000000 9
b0000000000000000 :
0;
0<
b000 =
b00000000 >
b00000000 ?
1@
b0000000000000000 A
b0000000000000000 B
b0000000000000000000 C
b0000000000000000000 D
b0000000000000000000 E
b0000000000000000000 F
b00000000 G
b000 H
0I
1J
0K
b00000000000000000 L
b00 M
b000 N
0O
b00000000000000000 P
b00 Q
b000 R
0S
b0000000000000000000 T
b0000000000000000000 U
b00000000000 V
b0000000000000000000 W
b0000000000000000000 X
b0000000000000000000 Y
b0000000000000000000 Z
b000 [
0\
0]
1^
0_
b0000000000000000000 `
b0000000000000000000 a
0b
0c
0d
b110 e
b10110111 f
b01011111 g
b00010101 h
b10010111 i
b11010101 j
b01111010 k
b10001010 l
b00100011 m
b00101100 n
b01010000 o
b10001111 p
b11011010 q
b00110011 r
b10000100 s
b11100000 t
b11000010 u
b11100101 v
b01010111 w
b10111000 x
b11011101 y
b10100111 z
b10110011 {
b01101010 |
b00000110 }
b100 ~
0!!
b11110101 "!
b10111110 #!
0$!
b0000000000 %!
0&!
1'!
0(!
b111 )!
0*!
0+!
0,!
b00101100 -!
1.!
b11100101 /!
00!
b0100000 1!
b0010011 2!
b0001010 3!
b0000101 4!
b0000011 5!
b0000001 6!
#80
0'!
#85
b00000000 '
b00000000 (
b00000000 )
b01111111 *
b10000001 +
b01111111 ,
0@
0J
b00000000 f
b00000000 g
b00000000 h
b00000000 i
b00000000 j
b00000000 k
b00000000 l
b00000000 m
b00000000 n
b01100011 o
b01111100 p
b00110111 q
b11001001 r
b10011101 t
b00000000 u
b01111111 v
b01001111 w
b11100100 x
b10001110 y
b10001110 z
b11100100 {
b01001111 |
b01111111 }
1&!
b00000000 -!
0.!
b01111111 /!
#87
0&!
#89
1&!
#91
0&!
#93
1&!
#95
0&!
#97
1&!
#99
0&!
#101
1&!
#103
0&!
#105
1&!
#107
0&!
#109
1&!
#111
0&!
#113
1&!
#115
0&!
#117
1&!
#119
0&!
#121
1&!
#123
0&!
#125
1&!
#127
0&!
#129
1&!
#131
0&!
#133
1&!
#135
0&!
#137
1&!
#139
0&!
#141
1&!
#143
0&!
#145
1&!
#147
0&!
#149
1&!
#151
0&!
#153
1&!
#155
0&!
#157
1&!
#159
0&!
#161
1&!
#163
0&!
#165
1&!
#167
0&!
#169
1&!
#171
0&!
#173
1&!
#175
0&!
#177
1&!
#179
0&!
#181
1&!
#183
0&!
#185
1&!
#187
0&!
#189
1&!
#191
0&!
#193
1&!
#195
0&!
#197
1&!
#199
0&!
#201
1&!
#203
0&!
#205
1&!
#207
0&!
#209
1&!
#211
0&!
#213
1&!
#215
0&!
#217
1&!
#219
0&!
#221
1&!
#223
0&!
#225
1&!
#227
0&!
#229
1&!
#231
0&!
#233
1&!
#235
0&!
#237
1&!
#239
0&!
#241
1&!
#243
0&!
#245
1&!
#247
0&!
#249
1&!
#251
0&!
#253
1&!
#255
0&!
#257
1&!
#259
0&!
#261
1&!
#263
0&!
#265
1&!
#267
0&!
#269
1&!
#271
0&!
#273
1&!
#275
0&!
#277
1&!
#279
0&!
#281
1&!
#283
0&!
#285
b01101110 #
b00101000 $
0%
1c
1!!
b00101000 "!
b01101110 #!
1&!
#287
0&!
#289
b01111111 #
b01011011 $
1%
b01001011 /
b00101000 0
b01101110 1
b001 =
b01101110 >
b00101000 ?
b11011101 G
b01111111 "!
b01011011 #!
1&!
#291
0&!
#293
b00001010 #
b10110100 $
b01010011 /
b01111111 2
b01011011 3
b010 =
b01111111 >
b11010101 G
b00001010 "!
b10110100 #!
1&!
#295
0&!
#297
b10001001 #
b10000011 $
0%
1&
b00011001 /
b00001010 4
b10110100 5
b011 =
b10110100 ?
b00001111 G
b10000011 "!
b10001001 #!
1&!
1*!
#299
0&!
#301
0&
b00000000 /
b10000011 6
b10001001 7
18
b000 =
b10000011 ?
b00101000 G
0!!
1&!
0*!
#303
0&!
#305
08
1I
1K
1&!
#307
0&!
#309
b0000000000101000 A
b0000000000101000 B
b0000000000000001010 C
b0000000000000001010 D
0K
b00000000001010000 L
1O
b00000000001010000 P
1S
1&!
#311
0&!
#313
b0000000000010100 A
b0000000000010100 B
b0000000000000000101 C
b0000000000000000101 D
b00000000000101000 L
b001 N
b00000000000101000 P
b001 R
1&!
1.!
10!
#315
0&!
#317
b0000000000001010 A
b0000000000001010 B
b0000000000000000010 C
b0000000000000000010 D
b00000000000010100 L
b010 N
b00000000000010100 P
b010 R
1&!
#319
0&!
#321
b10000001 ,
b0000000000000101 A
b0000000000000101 B
b0000000000000000001 C
b0000000000000000001 D
b00000000000001010 L
b10 M
b011 N
b00000000000001010 P
b10 Q
b011 R
1&!
b10000001 /!
#323
0&!
#325
b00111111 ,
b0000000000000010 A
b1100000010000010 B
b0000000000000000000 C
b1111111000000100000 D
b00000000000000101 L
b01 M
b100 N
b11000000100000101 P
b01 Q
b100 R
1&!
b01111111 /!
#327
0&!
#329
b10100000 ,
b0000000000000001 A
b0001111111000001 B
b0000000011111110000 D
b00000000000000010 L
b10 M
b101 N
b00011111110000010 P
b10 Q
b101 R
1&!
b10000001 /!
#331
0&!
#333
b01001111 ,
b0000000000000000 A
b1101000001100000 B
b1111111010000011000 D
b00000000000000001 L
b01 M
b110 N
b11010000011000001 P
b01 Q
b110 R
1&!
b01111111 /!
#335
0&!
#337
b10100110 ,
b0010011110110000 B
b0000000100111101100 D
b00000000000000000 L
b00 M
b111 N
b00100111101100000 P
b00 Q
b111 R
1&!
#339
0&!
#341
b10010010 ,
1@
b0001001111011000 B
b0000000010011110110 D
1J
b000 N
0O
b00010011110110000 P
b000 R
0S
1&!
1+!
#343
0&!
#345
b01100011 '
b10011101 (
b01100011 )
b01001111 *
b10110001 +
b01100010 ,
b0000010011110110 :
0@
b0000000010011110110 F
b01101110 G
b001 H
0J
1K
b0000000010011110110 X
b1111111101100001010 Z
1&!
0+!
b01100011 -!
0.!
b01001111 /!
00!
#347
0&!
#349
b01001111 ,
b0000000001101110 A
b0000000001101110 B
b0000000000000011011 C
b0000000000000011011 D
0K
b00000000011011100 L
1O
b00000000011011100 P
1S
1&!
#351
0&!
#353
b10011101 )
b10110001 ,
b0000000000110111 A
b0000000000110111 B
b0000000000000001101 C
b0000000000000001101 D
b00000000001101110 L
b10 M
b001 N
b00000000001101110 P
b10 Q
b001 R
1&!
b10011101 -!
1.!
b10110001 /!
10!
#355
0&!
#357
b00110001 )
b00100111 ,
b1100111010011011 A
b1101100010011011 B
b1111111001110100110 C
b1111111011000100110 D
b11001110100110111 L
b11 M
b010 N
b11011000100110111 P
b11 Q
b010 R
1&!
b01100011 -!
b01001111 /!
#359
0&!
#361
b01001010 )
b00111011 ,
b1110011101001101 A
b1110110001001101 B
b1111111100111010011 C
b1111111101100010011 D
b11100111010011011 L
b011 N
b11101100010011011 P
b011 R
1&!
#363
0&!
#365
b01010110 )
b01000101 ,
b1111001110100110 A
b1111011000100110 B
b1111111110011101001 C
b1111111110110001001 D
b11110011101001101 L
b01 M
b100 N
b11110110001001101 P
b01 Q
b100 R
1&!
#367
0&!
#369
b11001000 )
b11010011 ,
b0010101101010011 A
b0010001010010011 B
b0000000101011010100 C
b0000000100010100100 D
b00101011010100110 L
b10 M
b101 N
b00100010100100110 P
b10 Q
b101 R
1&!
b10011101 -!
b10110001 /!
#371
0&!
#373
b01000111 )
b00111000 ,
b1110010000101001 A
b1110100111001001 B
b1111111100100001010 C
b1111111101001110010 D
b11100100001010011 L
b11 M
b110 N
b11101001110010011 P
b11 Q
b110 R
1&!
b01100011 -!
b01001111 /!
#375
0&!
#377
b01010101 )
b01000011 ,
b1111001000010100 A
b1111010011100100 B
b1111111110010000101 C
b1111111110100111001 D
b11110010000101001 L
b01 M
b111 N
b11110100111001001 P
b01 Q
b111 R
1&!
#379
0&!
#381
b10001101 )
b01110000 ,
1@
b0010101010001010 A
b0010000111110010 B
b0000000101010100010 C
b0000000100001111100 D
b00101010100010100 L
b00 M
b000 N
0O
b00100001111100100 P
b00 Q
b000 R
0S
1&!
1+!
#383
0&!
#385
b01111100 '
b10000100 (
b10100110 )
b11100100 *
b00011100 +
b00000101 ,
b0000101010100010 9
b0000110101110010 :
0@
b0000000101010100010 E
b0000000110101110010 F
b01111111 G
b010 H
1K
b0000000101010100010 W
b0000000110101110010 X
b1111111010101011110 Y
b1111111001010001110 Z
1&!
0+!
b01111100 -!
0.!
b11100100 /!
00!
#387
0&!
#389
b10000100 )
b00011100 ,
b0000000001111111 A
b0000000001111111 B
b0000000000000011111 C
b0000000000000011111 D
0K
b00000000011111110 L
b10 M
1O
b00000000011111110 P
b10 Q
1S
1&!
b10000100 -!
b00011100 /!
#391
0&!
#393
b00111110 )
b11110010 ,
b1100001000111111 A
b0000111000111111 B
b1111111000010001111 C
b0000000001110001111 D
b11000010001111111 L
b11 M
b001 N
b00001110001111111 P
b11 Q
b001 R
1&!
b01111100 -!
1.!
b11100100 /!
10!
#395
0&!
#397
b01011101 )
b11101011 ,
b1110000100011111 A
b0000011100011111 B
b1111111100001000111 C
b0000000000111000111 D
b11100001000111111 L
b010 N
b00000111000111111 P
b010 R
1&!
#399
0&!
#401
b01101100 )
b11100111 ,
b1111000010001111 A
b0000001110001111 B
b1111111110000100011 C
b0000000000011100011 D
b11110000100011111 L
b011 N
b00000011100011111 P
b011 R
1&!
#403
0&!
#405
b01110100 )
b11100101 ,
b1111100001000111 A
b0000000111000111 B
b1111111111000010001 C
b0000000000001110001 D
b11111000010001111 L
b100 N
b00000001110001111 P
b100 R
1&!
#407
0&!
#409
b01111000 )
b11100100 ,
b1111110000100011 A
b0000000011100011 B
b1111111111100001000 C
b0000000000000111000 D
b11111100001000111 L
b101 N
b00000000111000111 P
b101 R
1&!
#411
0&!
#413
b01111010 )
b1111111000010001 A
b0000000001110001 B
b1111111111110000100 C
b0000000000000011100 D
b11111110000100011 L
b110 N
b00000000011100011 P
b110 R
1&!
#415
0&!
#417
b01111011 )
b1111111100001000 A
b0000000000111000 B
b1111111111111000010 C
b0000000000000001110 D
b11111111000010001 L
b01 M
b111 N
b00000000001110001 P
b01 Q
b111 R
1&!
#419
0&!
#421
b10111001 )
b11010110 ,
1@
b0011110110000100 A
b1111001000011100 B
b0000000111101100001 C
b1111111110010000111 D
b00111101100001000 L
b00 M
b000 N
0O
b11110010000111000 P
b00 Q
b000 R
0S
1&!
1+!
#423
0&!
#425
b00110111 '
b11001001 (
b01110100 )
b10001110 *
b01110010 +
b10000000 ,
b0001101000000011 9
b0000100111111001 :
0@
b0000001101000000011 E
b0000000100111111001 F
b01011011 G
b011 H
1K
b0000001101000000011 W
b0000000100111111001 X
b1111110010111111101 Y
b1111111011000000111 Z
1&!
0+!
b00110111 -!
0.!
b10001110 /!
00!
#427
0&!
#429
b11001001 )
b01110010 ,
b0000000001011011 A
b0000000001011011 B
b0000000000000010110 C
b0000000000000010110 D
0K
b00000000010110110 L
b10 M
1O
b00000000010110110 P
b10 Q
1S
1&!
b11001001 -!
b01110010 /!
#431
0&!
#433
b00011011 )
b11000111 ,
b1110010010101101 A
b0011100100101101 B
b1111111100100101011 C
b0000000111001001011 D
b11100100101011011 L
b11 M
b001 N
b00111001001011011 P
b11 Q
b001 R
1&!
b00110111 -!
1.!
b10001110 /!
10!
#435
0&!
#437
b00101001 )
b10101010 ,
b1111001001010110 A
b0001110010010110 B
b1111111110010010101 C
b0000000011100100101 D
b11110010010101101 L
b01 M
b010 N
b00011100100101101 P
b01 Q
b010 R
1&!
#439
0&!
#441
b11011101 )
b01000111 ,
b0001010010101011 A
b1101010101001011 B
b0000000010100101010 C
b1111111010101010010 D
b00010100101010110 L
b10 M
b011 N
b11010101010010110 P
b10 Q
b011 R
1&!
b11001001 -!
b01110010 /!
#443
0&!
#445
b00100101 )
b10110001 ,
b1110111011010101 A
b0010001110100101 B
b1111111101110110101 C
b0000000100011101001 D
b11101110110101011 L
b11 M
b100 N
b00100011101001011 P
b11 Q
b100 R
1&!
b00110111 -!
b10001110 /!
#447
0&!
#449
b00101110 )
b10011111 ,
b1111011101101010 A
b0001000111010010 B
b1111111110111011010 C
b0000000010001110100 D
b11110111011010101 L
b01 M
b101 N
b00010001110100101 P
b01 Q
b101 R
1&!
#451
0&!
#453
b11100000 )
b01000001 ,
b0001011100110101 A
b1100111111101001 B
b0000000010111001101 C
b1111111001111111010 D
b00010111001101010 L
b10 M
b110 N
b11001111111010010 P
b10 Q
b110 R
1&!
b11001001 -!
b01110010 /!
#455
0&!
#457
b00100111 )
b10101110 ,
b1111000000011010 A
b0010000011110100 B
b1111111110000000110 C
b0000000100000111101 D
b11110000000110101 L
b01 M
b111 N
b00100000111101001 P
b01 Q
b111 R
1&!
b00110111 -!
b10001110 /!
#459
0&!
#461
b11011100 )
b01100101 ,
1@
b0001001110001101 A
b1101011101111010 B
b0000000010011100011 C
b1111111010111011110 D
b00010011100011010 L
b10 M
b000 N
0O
b11010111011110100 P
b00 Q
b000 R
0S
1&!
1+!
b11001001 -!
#463
0&!
#465
b11001001 '
b00110111 (
b01001010 )
b0001111011100110 9
b1111111111010111 :
0@
b0000001111011100110 E
b1111111111111010111 F
b00001010 G
b100 H
1K
b0000001111011100110 W
b1111111111111010111 X
b1111110000100011010 Y
b0000000000000101001 Z
1&!
0+!
b00110111 -!
0.!
00!
#467
0&!
#469
b11001001 )
b10001110 ,
b0000000000001010 A
b0000000000001010 B
b0000000000000000010 C
b0000000000000000010 D
0K
b00000000000010100 L
b00 M
1O
b00000000000010100 P
1S
1&!
b11001001 -!
#471
0&!
#473
b00110111 )
b01110010 ,
b0000000000000101 A
b0000000000000101 B
b0000000000000000001 C
b0000000000000000001 D
b00000000000001010 L
b10 M
b001 N
b00000000000001010 P
b10 Q
b001 R
1&!
b00110111 -!
1.!
b01110010 /!
10!
#475
0&!
#477
b11100100 )
b11000111 ,
b0001101110000010 A
b0011100100000010 B
b0000000011011100000 C
b0000000111001000000 D
b00011011100000101 L
b01 M
b010 N
b00111001000000101 P
b01 Q
b010 R
1&!
b11001001 -!
b10001110 /!
#479
0&!
#481
b00101001 )
b01010101 ,
b1111001001000001 A
b1110001110000001 B
b1111111110010010000 C
b1111111100011100000 D
b11110010010000010 L
b10 M
b011 N
b11100011100000010 P
b10 Q
b011 R
1&!
b00110111 -!
b01110010 /!
#483
0&!
#485
b11011101 )
b10111000 ,
b0001010010100000 A
b0010101011000000 B
b0000000010100101000 C
b0000000101010110000 D
b00010100101000001 L
b01 M
b100 N
b00101010110000001 P
b01 Q
b100 R
1&!
b11001001 -!
b10001110 /!
#487
0&!
#489
b10110111 )
b01101010 ,
b1110111011010000 A
b1101110001100000 B
b1111111101110110100 C
b1111111011100011000 D
b11101110110100000 L
b00 M
b101 N
b11011100011000000 P
b00 Q
b101 R
1&!
#491
0&!
#493
b11000000 )
b01111100 ,
b1111011101101000 A
b1110111000110000 B
b1111111110111011010 C
b1111111101110001100 D
b11110111011010000 L
b110 N
b11101110001100000 P
b110 R
1&!
#495
0&!
#497
b11000100 )
b10000101 ,
b1111101110110100 A
b1111011100011000 B
b1111111111011101101 C
b1111111110111000110 D
b11111011101101000 L
b111 N
b11110111000110000 P
b111 R
1&!
#499
0&!
#501
b11000110 )
b10001001 ,
1@
b1111110111011010 A
b1111101110001100 B
b1111111111101110110 C
b1111111111011100011 D
b11111101110110100 L
b000 N
0O
b11111011100011000 P
b000 R
0S
1&!
1+!
#503
0&!
#505
b10000100 '
b01111100 (
b10000001 )
b11100100 *
b00011100 +
b11011111 ,
b0001111001011100 9
b1111111010111010 :
0@
b0000001111001011100 E
b1111111111010111010 F
b10110100 G
b101 H
1K
b0000001111001011100 W
b1111111111010111010 X
b1111110000110100100 Y
b0000000000101000110 Z
1&!
0+!
b10000100 -!
0.!
b11100100 /!
00!
#507
0&!
#509
b10000100 )
b11100100 ,
b0000000010110100 A
b0000000010110100 B
b0000000000000101101 C
b0000000000000101101 D
0K
b00000000101101000 L
1O
b00000000101101000 P
1S
1&!
#511
0&!
#513
b0000000001011010 A
b0000000001011010 B
b0000000000000010110 C
b0000000000000010110 D
b00000000010110100 L
b001 N
b00000000010110100 P
b001 R
1&!
1.!
10!
#515
0&!
#517
b01111100 )
b00011100 ,
b0000000000101101 A
b0000000000101101 B
b0000000000000001011 C
b0000000000000001011 D
b00000000001011010 L
b10 M
b010 N
b00000000001011010 P
b10 Q
b010 R
1&!
b01111100 -!
b00011100 /!
#519
0&!
#521
b11000010 )
b11110010 ,
b0011111000010110 A
b0000111000010110 B
b0000000111110000101 C
b0000000001110000101 D
b00111110000101101 L
b01 M
b011 N
b00001110000101101 P
b01 Q
b011 R
1&!
b10000100 -!
b11100100 /!
#523
0&!
#525
b01011101 )
b00010101 ,
b1110000100001011 A
b1111100100001011 B
b1111111100001000010 C
b1111111111001000010 D
b11100001000010110 L
b10 M
b100 N
b11111001000010110 P
b10 Q
b100 R
1&!
b01111100 -!
b00011100 /!
#527
0&!
#529
b10110010 )
b11101110 ,
b0010111010000101 A
b0000101010000101 B
b0000000101110100001 C
b0000000001010100001 D
b00101110100001011 L
b11 M
b101 N
b00001010100001011 P
b11 Q
b101 R
1&!
b10000100 -!
b11100100 /!
#531
0&!
