cardiff-b0/simWorkspace/cal_phase/test.vcd
$version Generated by VerilatedVcd $end
$date Fri Mar  4 14:50:08 2022
 $end
$timescale   1ps $end

 $scope module TOP $end
  $var wire  1 Q! clk $end
  $var wire 10 P! phase [9:0] $end
  $var wire  1 O! phase_vld $end
  $var wire  1 R! reset $end
  $var wire  2 3! rg_ac_table_0 [1:0] $end
  $var wire  2 4! rg_ac_table_1 [1:0] $end
  $var wire  2 5! rg_ac_table_2 [1:0] $end
  $var wire  2 6! rg_ac_table_3 [1:0] $end
  $var wire  2 7! rg_ac_table_4 [1:0] $end
  $var wire  2 8! rg_ac_table_5 [1:0] $end
  $var wire  2 9! rg_ac_table_6 [1:0] $end
  $var wire  2 :! rg_ac_table_7 [1:0] $end
  $var wire  1 )! rg_bypass_mean $end
  $var wire  1 (! rg_calphase_en $end
  $var wire  3 *! rg_cordic_iternum [2:0] $end
  $var wire  8 C! rg_cos_table_0 [7:0] $end
  $var wire  8 D! rg_cos_table_1 [7:0] $end
  $var wire  8 E! rg_cos_table_2 [7:0] $end
  $var wire  8 F! rg_cos_table_3 [7:0] $end
  $var wire  8 G! rg_cos_table_4 [7:0] $end
  $var wire  8 H! rg_cos_table_5 [7:0] $end
  $var wire  8 I! rg_cos_table_6 [7:0] $end
  $var wire  8 J! rg_cos_table_7 [7:0] $end
  $var wire  8 +! rg_leakage_table_0 [7:0] $end
  $var wire  8 ,! rg_leakage_table_1 [7:0] $end
  $var wire  8 -! rg_leakage_table_2 [7:0] $end
  $var wire  8 .! rg_leakage_table_3 [7:0] $end
  $var wire  8 /! rg_leakage_table_4 [7:0] $end
  $var wire  8 0! rg_leakage_table_5 [7:0] $end
  $var wire  8 1! rg_leakage_table_6 [7:0] $end
  $var wire  8 2! rg_leakage_table_7 [7:0] $end
  $var wire  8 ;! rg_sin_table_0 [7:0] $end
  $var wire  8 <! rg_sin_table_1 [7:0] $end
  $var wire  8 =! rg_sin_table_2 [7:0] $end
  $var wire  8 >! rg_sin_table_3 [7:0] $end
  $var wire  8 ?! rg_sin_table_4 [7:0] $end
  $var wire  8 @! rg_sin_table_5 [7:0] $end
  $var wire  8 A! rg_sin_table_6 [7:0] $end
  $var wire  8 B! rg_sin_table_7 [7:0] $end
  $var wire  3 K! valid_num [2:0] $end
  $var wire  8 M! vin1 [7:0] $end
  $var wire  8 N! vin2 [7:0] $end
  $var wire  1 L! vin_vld $end
  $scope module cal_phase $end
   $var wire  1 0 calvn_finish $end
   $var wire  1 0 calvn_finish_1 $end
   $var wire  8 ' calvn_mean [7:0] $end
   $var wire  8 ( calvn_vn_0 [7:0] $end
   $var wire  8 ) calvn_vn_1 [7:0] $end
   $var wire  8 * calvn_vn_2 [7:0] $end
   $var wire  8 + calvn_vn_3 [7:0] $end
   $var wire  8 , calvn_vn_4 [7:0] $end
   $var wire  8 - calvn_vn_5 [7:0] $end
   $var wire  8 . calvn_vn_6 [7:0] $end
   $var wire  8 / calvn_vn_7 [7:0] $end
   $var wire  1 Q! clk $end
   $var wire 10 & cordic_res [9:0] $end
   $var wire  1 4 cordic_res_vld $end
   $var wire 16 1 dot_psum_out1 [15:0] $end
   $var wire 16 2 dot_psum_out2 [15:0] $end
   $var wire  1 3 dot_psum_vld $end
   $var wire  8 ' mean [7:0] $end
   $var wire 10 & ph_cal [9:0] $end
   $var wire  1 S! ph_vld $end
   $var wire 10 & phase [9:0] $end
   $var wire  1 S! phase_vld $end
   $var wire 16 1 psum_out1 [15:0] $end
   $var wire 16 2 psum_out2 [15:0] $end
   $var wire  1 3 psum_vld $end
   $var wire  1 R! reset $end
   $var wire  2 3! rg_ac_table_0 [1:0] $end
   $var wire  2 4! rg_ac_table_1 [1:0] $end
   $var wire  2 5! rg_ac_table_2 [1:0] $end
   $var wire  2 6! rg_ac_table_3 [1:0] $end
   $var wire  2 7! rg_ac_table_4 [1:0] $end
   $var wire  2 8! rg_ac_table_5 [1:0] $end
   $var wire  2 9! rg_ac_table_6 [1:0] $end
   $var wire  2 :! rg_ac_table_7 [1:0] $end
   $var wire  1 )! rg_bypass_mean $end
   $var wire  1 (! rg_calphase_en $end
   $var wire  3 *! rg_cordic_iternum [2:0] $end
   $var wire  8 C! rg_cos_table_0 [7:0] $end
   $var wire  8 D! rg_cos_table_1 [7:0] $end
   $var wire  8 E! rg_cos_table_2 [7:0] $end
   $var wire  8 F! rg_cos_table_3 [7:0] $end
   $var wire  8 G! rg_cos_table_4 [7:0] $end
   $var wire  8 H! rg_cos_table_5 [7:0] $end
   $var wire  8 I! rg_cos_table_6 [7:0] $end
   $var wire  8 J! rg_cos_table_7 [7:0] $end
   $var wire  8 +! rg_leakage_table_0 [7:0] $end
   $var wire  8 ,! rg_leakage_table_1 [7:0] $end
   $var wire  8 -! rg_leakage_table_2 [7:0] $end
   $var wire  8 .! rg_leakage_table_3 [7:0] $end
   $var wire  8 /! rg_leakage_table_4 [7:0] $end
   $var wire  8 0! rg_leakage_table_5 [7:0] $end
   $var wire  8 1! rg_leakage_table_6 [7:0] $end
   $var wire  8 2! rg_leakage_table_7 [7:0] $end
   $var wire  8 ;! rg_sin_table_0 [7:0] $end
   $var wire  8 <! rg_sin_table_1 [7:0] $end
   $var wire  8 =! rg_sin_table_2 [7:0] $end
   $var wire  8 >! rg_sin_table_3 [7:0] $end
   $var wire  8 ?! rg_sin_table_4 [7:0] $end
   $var wire  8 @! rg_sin_table_5 [7:0] $end
   $var wire  8 A! rg_sin_table_6 [7:0] $end
   $var wire  8 B! rg_sin_table_7 [7:0] $end
   $var wire  3 K! valid_num [2:0] $end
   $var wire  3 T! valid_num_true [2:0] $end
   $var wire  8 M! vin1 [7:0] $end
   $var wire  8 5 vin1_reg [7:0] $end
   $var wire  8 N! vin2 [7:0] $end
   $var wire  8 6 vin2_reg [7:0] $end
   $var wire  1 L! vin_vld $end
   $var wire  1 7 vin_vld_reg $end
   $var wire  8 ( vn_0 [7:0] $end
   $var wire  8 ) vn_1 [7:0] $end
   $var wire  8 * vn_2 [7:0] $end
   $var wire  8 + vn_3 [7:0] $end
   $var wire  8 , vn_4 [7:0] $end
   $var wire  8 - vn_5 [7:0] $end
   $var wire  8 . vn_6 [7:0] $end
   $var wire  8 / vn_7 [7:0] $end
   $scope module calvn $end
    $var wire  8 ( V_bias_ac_0 [7:0] $end
    $var wire  8 ) V_bias_ac_1 [7:0] $end
    $var wire  8 * V_bias_ac_2 [7:0] $end
    $var wire  8 + V_bias_ac_3 [7:0] $end
    $var wire  8 , V_bias_ac_4 [7:0] $end
    $var wire  8 - V_bias_ac_5 [7:0] $end
    $var wire  8 . V_bias_ac_6 [7:0] $end
    $var wire  8 / V_bias_ac_7 [7:0] $end
    $var wire  8 #! bigger [7:0] $end
    $var wire  1 Q! clk $end
    $var wire  1 &! data_load_finish $end
    $var wire  1 (! en $end
    $var wire  1 0 finish $end
    $var wire  8 = max_v [7:0] $end
    $var wire  8 ' mean [7:0] $end
    $var wire  1 U! mean_finish $end
    $var wire  1 0 mean_finish_regNext $end
    $var wire  8 > min_v [7:0] $end
    $var wire  1 R! reset $end
    $var wire  2 3! rg_ac_table_0 [1:0] $end
    $var wire  2 4! rg_ac_table_1 [1:0] $end
    $var wire  2 5! rg_ac_table_2 [1:0] $end
    $var wire  2 6! rg_ac_table_3 [1:0] $end
    $var wire  2 7! rg_ac_table_4 [1:0] $end
    $var wire  2 8! rg_ac_table_5 [1:0] $end
    $var wire  2 9! rg_ac_table_6 [1:0] $end
    $var wire  2 :! rg_ac_table_7 [1:0] $end
    $var wire  1 )! rg_bypass_mean $end
    $var wire  8 +! rg_leakage_table_0 [7:0] $end
    $var wire  8 ,! rg_leakage_table_1 [7:0] $end
    $var wire  8 -! rg_leakage_table_2 [7:0] $end
    $var wire  8 .! rg_leakage_table_3 [7:0] $end
    $var wire  8 /! rg_leakage_table_4 [7:0] $end
    $var wire  8 0! rg_leakage_table_5 [7:0] $end
    $var wire  8 1! rg_leakage_table_6 [7:0] $end
    $var wire  8 2! rg_leakage_table_7 [7:0] $end
    $var wire  8 $! smaller [7:0] $end
    $var wire  1 %! v1gtv2 $end
    $var wire  3 : v_cnt [2:0] $end
    $var wire  3 ; v_cnt_group0 [2:0] $end
    $var wire  3 < v_cnt_group1 [2:0] $end
    $var wire  3 K! valid_num [2:0] $end
    $var wire  8 5 vin1 [7:0] $end
    $var wire  8 } vin1_bias_shift [7:0] $end
    $var wire  8 !! vin1_bias_shift_norm [7:0] $end
    $var wire  8 6 vin2 [7:0] $end
    $var wire  8 ~ vin2_bias_shift [7:0] $end
    $var wire  8 "! vin2_bias_shift_norm [7:0] $end
    $var wire  1 7 vin_vld $end
    $var wire  1 8 vin_vld_d1 $end
    $var wire  1 9 vin_vld_d2 $end
    $var wire  8 ( vn_0 [7:0] $end
    $var wire  8 ) vn_1 [7:0] $end
    $var wire  8 * vn_2 [7:0] $end
    $var wire  8 + vn_3 [7:0] $end
    $var wire  8 , vn_4 [7:0] $end
    $var wire  8 - vn_5 [7:0] $end
    $var wire  8 . vn_6 [7:0] $end
    $var wire  8 / vn_7 [7:0] $end
   $upscope $end
   $scope module cordic $end
    $var wire  7 \! KAngle_0 [6:0] $end
    $var wire  7 ]! KAngle_1 [6:0] $end
    $var wire  7 ^! KAngle_2 [6:0] $end
    $var wire  7 _! KAngle_3 [6:0] $end
    $var wire  7 `! KAngle_4 [6:0] $end
    $var wire  7 a! KAngle_5 [6:0] $end
    $var wire  7 a! KAngle_6 [6:0] $end
    $var wire  3 t cal_cnt [2:0] $end
    $var wire  1 u cal_en $end
    $var wire  1 y cal_en_regNext $end
    $var wire  1 '! cal_finish $end
    $var wire  1 | cal_finish_delay $end
    $var wire  1 v cal_start $end
    $var wire  1 w cal_start_delay $end
    $var wire  1 w cal_start_regNext $end
    $var wire  1 Q! clk $end
    $var wire  1 [! early_finish1 $end
    $var wire  1 w early_finish2 $end
    $var wire  1 (! en $end
    $var wire  1 4 finish $end
    $var wire  1 Z! normal_finish $end
    $var wire  1 x nozero_flg $end
    $var wire  1 % nozero_flg_regNext $end
    $var wire 10 & res [9:0] $end
    $var wire 10 & res_out [9:0] $end
    $var wire 11 o res_rg [10:0] $end
    $var wire  1 4 res_vld $end
    $var wire  1 R! reset $end
    $var wire  3 *! rg_cordic_iternum [2:0] $end
    $var wire  1 3 vld $end
    $var wire 16 1 x [15:0] $end
    $var wire 19 p x_ext [18:0] $end
    $var wire 19 r x_ins [18:0] $end
    $var wire 19 m xn [18:0] $end
    $var wire 19 z xn_rightshift [18:0] $end
    $var wire 16 2 y [15:0] $end
    $var wire 19 q y_ext [18:0] $end
    $var wire 19 s y_ins [18:0] $end
    $var wire 19 n yn [18:0] $end
    $var wire 19 { yn_rightshift [18:0] $end
   $upscope $end
   $scope module dot $end
    $var wire 16 A booth_cos_io_dout [15:0] $end
    $var wire  1 V! booth_cos_io_dout_vld $end
    $var wire 16 @ booth_sin_io_dout [15:0] $end
    $var wire  1 ? booth_sin_io_dout_vld $end
    $var wire  1 J booth_start $end
    $var wire  1 Q! clk $end
    $var wire  1 (! en $end
    $var wire  1 3 finish $end
    $var wire  3 G mac_cnt [2:0] $end
    $var wire  1 H mac_en $end
    $var wire  1 W! mac_finish $end
    $var wire  1 I mac_start $end
    $var wire  8 ' mean [7:0] $end
    $var wire  1 ? mul_done $end
    $var wire 16 @ product1 [15:0] $end
    $var wire 16 A product2 [15:0] $end
    $var wire 19 D psum1 [18:0] $end
    $var wire 19 E psum2 [18:0] $end
    $var wire 16 1 psum_out1 [15:0] $end
    $var wire 16 2 psum_out2 [15:0] $end
    $var wire  1 3 psum_vld $end
    $var wire  1 R! reset $end
    $var wire  8 C! rg_cos_table_0 [7:0] $end
    $var wire  8 D! rg_cos_table_1 [7:0] $end
    $var wire  8 E! rg_cos_table_2 [7:0] $end
    $var wire  8 F! rg_cos_table_3 [7:0] $end
    $var wire  8 G! rg_cos_table_4 [7:0] $end
    $var wire  8 H! rg_cos_table_5 [7:0] $end
    $var wire  8 I! rg_cos_table_6 [7:0] $end
    $var wire  8 J! rg_cos_table_7 [7:0] $end
    $var wire  8 ;! rg_sin_table_0 [7:0] $end
    $var wire  8 <! rg_sin_table_1 [7:0] $end
    $var wire  8 =! rg_sin_table_2 [7:0] $end
    $var wire  8 >! rg_sin_table_3 [7:0] $end
    $var wire  8 ?! rg_sin_table_4 [7:0] $end
    $var wire  8 @! rg_sin_table_5 [7:0] $end
    $var wire  8 A! rg_sin_table_6 [7:0] $end
    $var wire  8 B! rg_sin_table_7 [7:0] $end
    $var wire 19 B s1 [18:0] $end
    $var wire 19 C s2 [18:0] $end
    $var wire  3 T! valid_num [2:0] $end
    $var wire  8 F vin_minus_mean [7:0] $end
    $var wire  8 F vin_true_in [7:0] $end
    $var wire  8 ( vn_in_0 [7:0] $end
    $var wire  8 ) vn_in_1 [7:0] $end
    $var wire  8 * vn_in_2 [7:0] $end
    $var wire  8 + vn_in_3 [7:0] $end
    $var wire  8 , vn_in_4 [7:0] $end
    $var wire  8 - vn_in_5 [7:0] $end
    $var wire  8 . vn_in_6 [7:0] $end
    $var wire  8 / vn_in_7 [7:0] $end
    $var wire  1 0 vn_vld $end
    $scope module booth_cos $end
     $var wire 10 d Add2B [9:0] $end
     $var wire 10 c AddB [9:0] $end
     $var wire  8 \ Breg [7:0] $end
     $var wire 10 f Minus2B [9:0] $end
     $var wire 10 e MinusB [9:0] $end
     $var wire 10 ` Negative2B [9:0] $end
     $var wire 10 _ NegativeB [9:0] $end
     $var wire 10 b Positive2B [9:0] $end
     $var wire 10 a PositiveB [9:0] $end
     $var wire 19 l aftershift [18:0] $end
     $var wire 10 k beforeshift [9:0] $end
     $var wire  2 g cal_cnt [1:0] $end
     $var wire  1 h cal_en $end
     $var wire  1 $ cal_en_regNext $end
     $var wire  1 Q! clk $end
     $var wire  3 ^ flag_bits [2:0] $end
     $var wire  8 F io_dinA [7:0] $end
     $var wire  8 Y! io_dinB [7:0] $end
     $var wire  1 J io_din_vld $end
     $var wire 16 A io_dout [15:0] $end
     $var wire  1 V! io_dout_vld $end
     $var wire  1 R! reset $end
     $var wire 19 ] shiftReg [18:0] $end
     $var wire 10 j shiftReg_high [9:0] $end
     $var wire  9 i shiftReg_low [8:0] $end
    $upscope $end
    $scope module booth_sin $end
     $var wire 10 S Add2B [9:0] $end
     $var wire 10 R AddB [9:0] $end
     $var wire  8 K Breg [7:0] $end
     $var wire 10 U Minus2B [9:0] $end
     $var wire 10 T MinusB [9:0] $end
     $var wire 10 O Negative2B [9:0] $end
     $var wire 10 N NegativeB [9:0] $end
     $var wire 10 Q Positive2B [9:0] $end
     $var wire 10 P PositiveB [9:0] $end
     $var wire 19 [ aftershift [18:0] $end
     $var wire 10 Z beforeshift [9:0] $end
     $var wire  2 V cal_cnt [1:0] $end
     $var wire  1 W cal_en $end
     $var wire  1 # cal_en_regNext $end
     $var wire  1 Q! clk $end
     $var wire  3 M flag_bits [2:0] $end
     $var wire  8 F io_dinA [7:0] $end
     $var wire  8 X! io_dinB [7:0] $end
     $var wire  1 J io_din_vld $end
     $var wire 16 @ io_dout [15:0] $end
     $var wire  1 ? io_dout_vld $end
     $var wire  1 R! reset $end
     $var wire 19 L shiftReg [18:0] $end
     $var wire 10 Y shiftReg_high [9:0] $end
     $var wire  9 X shiftReg_low [8:0] $end
    $upscope $end
   $upscope $end
  $upscope $end
 $upscope $end
$enddefinitions $end


#0
1#
1$
1%
b0000000000 &
b00000000 '
b00000000 (
b00000000 )
b00000000 *
b00000000 +
b00000000 ,
b00000000 -
b00000000 .
b00000000 /
00
b0000000000000000 1
b0000000000000000 2
03
04
b00000000 5
b00000000 6
07
08
09
b000 :
b000 ;
b001 <
b00000000 =
b00000000 >
1?
b0000000000000000 @
b0000000000000000 A
b0000000000000000000 B
b0000000000000000000 C
b0000000000000000000 D
b0000000000000000000 E
b00000000 F
b000 G
0H
1I
0J
b00000000 K
b0000000000000000000 L
b000 M
b0000000000 N
b0000000000 O
b0000000000 P
b0000000000 Q
b0000000000 R
b0000000000 S
b0000000000 T
b0000000000 U
b00 V
0W
b000000000 X
b0000000000 Y
b0000000000 Z
b0000000000000000000 [
b00000000 \
b0000000000000000000 ]
b000 ^
b0000000000 _
b0000000000 `
b0000000000 a
b0000000000 b
b0000000000 c
b0000000000 d
b0000000000 e
b0000000000 f
b00 g
0h
b000000000 i
b0000000000 j
b0000000000 k
b0000000000000000000 l
b0000000000000000000 m
b0000000000000000000 n
b00000000000 o
b0000000000000000000 p
b0000000000000000000 q
b0000000000000000000 r
b0000000000000000000 s
b000 t
0u
0v
0w
1x
0y
b0000000000000000000 z
b0000000000000000000 {
0|
b00010000 }
b00101001 ~
b10010000 !!
b10101001 "!
b10101001 #!
b10010000 $!
0%!
0&!
0'!
0(!
0)!
b110 *!
b11111000 +!
b11010111 ,!
b01101000 -!
b00100000 .!
b01010001 /!
b11110011 0!
b10000001 1!
b11111101 2!
b01 3!
b00 4!
b11 5!
b00 6!
b01 7!
b00 8!
b10 9!
b00 :!
b11110110 ;!
b11011000 <!
b11011101 =!
b00001000 >!
b11100101 ?!
b01010111 @!
b01001110 A!
b01001100 B!
b01111101 C!
b10000000 D!
b00100001 E!
b00001101 F!
b10001111 G!
b11101101 H!
b11111100 I!
b00010101 J!
b100 K!
0L!
b01110010 M!
b00100111 N!
0O!
b0000000000 P!
0Q!
1R!
0S!
b111 T!
0U!
1V!
0W!
b11110110 X!
b01111101 Y!
0Z!
0[!
b0100000 \!
b0010011 ]!
b0001010 ^!
b0000101 _!
b0000011 `!
b0000001 a!
#80
0R!
#85
0#
0$
0?
0I
b00000000 }
b00000000 ~
b10000000 !!
b10000000 "!
b10000000 #!
b10000000 $!
b00000000 +!
b00000000 ,!
b00000000 -!
b00000000 .!
b00000000 /!
b00000000 0!
b00000000 1!
b00000000 2!
b00000000 ;!
b01100011 <!
b01111100 =!
b00110111 >!
b11001001 ?!
b10000100 @!
b10011101 A!
b00000000 B!
b01111111 C!
b01001111 D!
b11100100 E!
b10001110 F!
b10001110 G!
b11100100 H!
b01001111 I!
b01111111 J!
1Q!
0V!
b00000000 X!
b01111111 Y!
#87
0Q!
#89
1Q!
#91
0Q!
#93
1Q!
#95
0Q!
#97
1Q!
#99
0Q!
#101
1Q!
#103
0Q!
#105
1Q!
#107
0Q!
#109
1Q!
#111
0Q!
#113
1Q!
#115
0Q!
#117
1Q!
#119
0Q!
#121
1Q!
#123
0Q!
#125
1Q!
#127
0Q!
#129
1Q!
#131
0Q!
#133
1Q!
#135
0Q!
#137
1Q!
#139
0Q!
#141
1Q!
#143
0Q!
#145
1Q!
#147
0Q!
#149
1Q!
#151
0Q!
#153
1Q!
#155
0Q!
#157
1Q!
#159
0Q!
#161
1Q!
#163
0Q!
#165
1Q!
#167
0Q!
#169
1Q!
#171
0Q!
#173
1Q!
#175
0Q!
#177
1Q!
#179
0Q!
#181
1Q!
#183
0Q!
#185
1Q!
#187
0Q!
#189
1Q!
#191
0Q!
#193
1Q!
#195
0Q!
#197
1Q!
#199
0Q!
#201
1Q!
#203
0Q!
#205
1Q!
#207
0Q!
#209
1Q!
#211
0Q!
#213
1Q!
#215
0Q!
#217
1Q!
#219
0Q!
#221
1Q!
#223
0Q!
#225
1Q!
#227
0Q!
#229
1Q!
#231
0Q!
#233
1Q!
#235
0Q!
#237
1Q!
#239
0Q!
#241
1Q!
#243
0Q!
#245
1Q!
#247
0Q!
#249
1Q!
#251
0Q!
#253
1Q!
#255
0Q!
#257
1Q!
#259
0Q!
#261
1Q!
#263
0Q!
#265
1Q!
#267
0Q!
#269
1Q!
#271
0Q!
#273
1Q!
#275
0Q!
#277
1Q!
#279
0Q!
#281
1Q!
#283
0Q!
#285
1(!
1L!
b00101000 M!
b01101110 N!
1Q!
#287
0Q!
#289
b00101000 5
b01101110 6
17
b01010000 }
b01101110 ~
b11010000 !!
b11101110 "!
b11101110 #!
b11010000 $!
b01111111 M!
b01011011 N!
1Q!
#291
0Q!
#293
b11011111 '
b11010000 (
b11101110 )
b01111111 5
b01011011 6
18
b001 :
b010 ;
b011 <
b11101110 =
b11010000 >
b11110001 F
b11111000 }
b01011011 ~
b01111000 !!
b11011011 "!
b01111000 #!
b11011011 $!
1%!
b00001010 M!
b01001100 N!
1Q!
#295
0Q!
#297
b00100100 '
b01111000 *
b11011011 +
b00001010 5
b01001100 6
19
b010 :
b100 ;
b101 <
b01111000 =
b10101100 F
b00010100 }
b01001100 ~
b10010100 !!
b11001100 "!
b11001100 #!
b10010100 $!
0%!
b01111101 M!
b01110111 N!
1Q!
#299
0Q!
#301
b00000110 '
b10010100 ,
b11001100 -
b01111101 5
b01110111 6
b011 :
b110 ;
b111 <
b10010100 >
b11001010 F
b11110100 }
b01110111 ~
b01110100 !!
b11110111 "!
b01110100 #!
b11110111 $!
1%!
1&!
0L!
1Q!
1U!
#303
0Q!
#305
b01110100 .
b11110111 /
10
07
b000 :
b000 ;
b001 <
b11111010 }
b01111010 !!
b01111010 #!
0&!
1Q!
0U!
#307
0Q!
#309
00
08
1H
1J
1Q!
#311
0Q!
#313
09
b0000000011001010 @
b0000000011001010 A
b0000000000000110010 B
b0000000000000110010 C
0J
b0000000000110010100 L
b100 M
1W
b110010100 X
b0000000000001100101 [
b01111111 \
b0000000000110010100 ]
b100 ^
b1110000001 _
b1100000010 `
b0001111111 a
b0011111110 b
b0001111111 c
b0011111110 d
b1110000001 e
b1100000010 f
1h
b110010100 i
b1100000010 k
b1111000000101100101 l
1Q!
#315
0Q!
#317
1#
1$
b0000000000110010 @
b1100000010110010 A
b0000000000000001100 B
b1111111000000101100 C
b0000000000001100101 L
b101 M
b01 V
b001100101 X
b0000000000000011001 [
b1111000000101100101 ]
b101 ^
b0000111111 c
b0010111110 d
b1101000001 e
b1011000010 f
b01 g
b101100101 i
b1111000000 j
b1101000001 k
b1111010000011011001 l
1Q!
#319
0Q!
#321
b0000000000001100 @
b1101000001101100 A
b0000000000000000011 B
b1111111010000011011 C
b0000000000000011001 L
b001 M
b10 V
b000011001 X
b0000000000000000110 [
b1111010000011011001 ]
b001 ^
b0001001111 c
b0011001110 d
b1101010001 e
b1011010010 f
b10 g
b011011001 i
b1111010000 j
b0001001111 k
b0000010011110110110 l
1Q!
#323
0Q!
#325
b0000000000000011 @
b0001001111011011 A
b0000000000000000000 B
b0000000010011110110 C
b0000000000000000110 L
b110 M
b11 V
b000000110 X
b0000000000000000001 [
b0000010011110110110 ]
b110 ^
b0010010010 c
b0100010001 d
b1110010100 e
b1100010101 f
b11 g
b110110110 i
b0000010011 j
b1110010100 k
b1111100101001101101 l
1Q!
#327
0Q!
#329
1?
b0000000000000000 @
b1110010100110110 A
b1111111100101001101 C
1I
b0000000000000000001 L
b001 M
b00 V
0W
b000000001 X
b0000000000000000000 [
b1111100101001101101 ]
b101 ^
b0001100100 c
b0011100011 d
b1101100110 e
b1011100111 f
b00 g
0h
b001101101 i
b1111100101 j
b1101100110 k
b1111011001100011011 l
1Q!
1V!
#331
0Q!
#333
0#
0$
b1111100101001101 2
0?
b1111111100101001101 E
b11101000 F
b001 G
0I
1J
b1111111100101001101 q
b0000000011010110011 s
1Q!
0V!
b01100011 X!
b01001111 Y!
#335
0Q!
#337
b0000000011101000 @
b0000000011101000 A
b0000000000000111010 B
b0000000000000111010 C
0J
b01100011 K
b0000000000111010000 L
b000 M
b1110011101 N
b1100111010 O
b0001100011 P
b0011000110 Q
b0001100011 R
b0011000110 S
b1110011101 T
b1100111010 U
1W
b111010000 X
b0000000000001110100 [
b01001111 \
b0000000000111010000 ]
b000 ^
b1110110001 _
b1101100010 `
b0001001111 a
b0010011110 b
b0001001111 c
b0010011110 d
b1110110001 e
b1101100010 f
1h
b111010000 i
b0000000000 j
b0000000000 k
b0000000000001110100 l
1Q!
#339
0Q!
#341
1#
1$
b0000000000111010 @
b0000000000111010 A
b0000000000000001110 B
b0000000000000001110 C
b0000000000001110100 L
b100 M
b01 V
b001110100 X
b1100111010 Z
b1111001110100011101 [
b0000000000001110100 ]
b100 ^
b01 g
b001110100 i
b1101100010 k
b1111011000100011101 l
1Q!
#343
0Q!
#345
b1100111010001110 @
b1101100010001110 A
b1111111001110100011 B
b1111111011000100011 C
b1111001110100011101 L
b101 M
b0000110001 R
b0010010100 S
b1101101011 T
b1100001000 U
b10 V
b100011101 X
b1111001110 Y
b1101101011 Z
b1111011010111000111 [
b1111011000100011101 ]
b101 ^
b0000100111 c
b0001110110 d
b1110001001 e
b1100111010 f
b10 g
b100011101 i
b1111011000 j
b1110001001 k
b1111100010011000111 l
1Q!
#347
0Q!
#349
b1101101011100011 @
b1110001001100011 A
b1111111011010111000 B
b1111111100010011000 C
b1111011010111000111 L
b111 M
b0000111101 R
b0010100000 S
b1101110111 T
b1100010100 U
b11 V
b111000111 X
b1111011010 Y
b1111011010 Z
b1111110110101110001 [
b1111100010011000111 ]
b111 ^
b0000110001 c
b0010000000 d
b1110010011 e
b1101000100 f
b11 g
b011000111 i
b1111100010 j
b1111100010 k
b1111111000100110001 l
1Q!
#351
0Q!
#353
1?
b1111011010111000 @
b1111100010011000 A
b1111111110110101110 B
b1111111111000100110 C
b1111110110101110001 L
b001 M
b0001011001 R
b0010111100 S
b1110010011 T
b1100110000 U
b00 V
0W
b101110001 X
b1111110110 Y
b0001011001 Z
b0000010110011011100 [
b1111111000100110001 ]
b001 ^
b0001000111 c
b0010010110 d
b1110101001 e
b1101011010 f
b00 g
0h
b100110001 i
b1111111000 j
b0001000111 k
b0000010001111001100 l
1Q!
1V!
#355
0Q!
#357
0#
0$
b1111110110101110 1
b1111011101110011 2
0?
b1111111110110101110 D
b1111111011101110011 E
b01110010 F
b010 G
1J
b1111111110110101110 p
b1111111011101110011 q
b0000000001001010010 r
b0000000100010001101 s
1Q!
0V!
b01111100 X!
b11100100 Y!
#359
0Q!
#361
b0000000001110010 @
b0000000001110010 A
b0000000000000011100 B
b0000000000000011100 C
0J
b01111100 K
b0000000000011100100 L
b100 M
b1110000100 N
b1100001000 O
b0001111100 P
b0011111000 Q
b0001111100 R
b0011111000 S
b1110000100 T
b1100001000 U
1W
b011100100 X
b0000000000 Y
b1100001000 Z
b1111000010000111001 [
b11100100 \
b0000000000011100100 ]
b100 ^
b0000011100 _
b0000111000 `
b1111100100 a
b1111001000 b
b1111100100 c
b1111001000 d
b0000011100 e
b0000111000 f
1h
b011100100 i
b0000000000 j
b0000111000 k
b0000001110000111001 l
1Q!
#363
0Q!
#365
1#
1$
b1100001000011100 @
b0000111000011100 A
b1111111000010000111 B
b0000000001110000111 C
b1111000010000111001 L
b001 M
b0000111110 R
b0010111010 S
b1101000110 T
b1011001010 U
b01 V
b000111001 X
b1111000010 Y
b0000111110 Z
b0000001111100001110 [
b0000001110000111001 ]
b001 ^
b1111110010 c
b1111010110 d
b0000101010 e
b0001000110 f
b01 g
b000111001 i
b0000001110 j
b1111110010 k
b1111111100100001110 l
1Q!
#367
0Q!
#369
b0000111110000111 @
b1111110010000111 A
b0000000001111100001 B
b1111111111100100001 C
b0000001111100001110 L
b110 M
b0010001011 R
b0100000111 S
b1110010011 T
b1100010111 U
b10 V
b100001110 X
b0000001111 Y
b1110010011 Z
b1111100100111000011 [
b1111111100100001110 ]
b110 ^
b1111100000 c
b1111000100 d
b0000011000 e
b0000110100 f
b10 g
b100001110 i
b1111111100 j
b0000011000 k
b0000000110001000011 l
1Q!
#371
0Q!
#373
b1110010011100001 @
b0000011000100001 A
b1111111100100111000 B
b0000000000110001000 C
b1111100100111000011 L
b011 M
b0001100000 R
b0011011100 S
b1101101000 T
b1011101100 U
b11 V
b111000011 X
b1111100100 Y
b0011011100 Z
b0000110111001110000 [
b0000000110001000011 ]
b011 ^
b1111101010 c
b1111001110 d
b0000100010 e
b0000111110 f
b11 g
b001000011 i
b0000000110 j
b1111001110 k
b1111110011100010000 l
1Q!
#375
0Q!
#377
1?
b0011011100111000 @
b1111001110001000 A
b0000000110111001110 B
b1111111110011100010 C
b0000110111001110000 L
b000 M
b0010110011 R
b0100101111 S
b1110111011 T
b1100111111 U
b00 V
0W
b001110000 X
b0000110111 Y
b0000110111 Z
b0000001101110011100 [
b1111110011100010000 ]
b000 ^
b1111010111 c
b1110111011 d
b0000001111 e
b0000101011 f
b00 g
0h
b100010000 i
b1111110011 j
b1111110011 k
b1111111100111000100 l
1Q!
1V!
#379
0Q!
#381
0#
0$
b0000101101111100 1
b1111010001010101 2
0?
b0000000101101111100 D
b1111111010001010101 E
b11010101 F
b011 G
1J
b0000000101101111100 p
b1111111010001010101 q
b1111111010010000100 r
b0000000101110101011 s
1Q!
0V!
b00110111 X!
b10001110 Y!
#383
0Q!
#385
b0000000011010101 @
b0000000011010101 A
b0000000000000110101 B
b0000000000000110101 C
0J
b00110111 K
b0000000000110101010 L
b010 M
b1111001001 N
b1110010010 O
b0000110111 P
b0001101110 Q
b0000110111 R
b0001101110 S
b1111001001 T
b1110010010 U
1W
b110101010 X
b0000000000 Y
b0000001101111101010 [
b10001110 \
b0000000000110101010 ]
b010 ^
b0001110010 _
b0011100100 `
b1110001110 a
b1100011100 b
b1110001110 c
b1100011100 d
b0001110010 e
b0011100100 f
1h
b110101010 i
b0000000000 j
b1110001110 k
b1111100011101101010 l
1Q!
#387
0Q!
