cardiff-b0/simWorkspace/cal_phase/test.vcd
$version Generated by VerilatedVcd $end
$date Thu Dec 23 11:23:10 2021
 $end
$timescale   1ps $end

 $scope module TOP $end
  $var wire  1 0! clk $end
  $var wire 10 /! phase [9:0] $end
  $var wire  1 .! phase_vld $end
  $var wire  1 1! reset $end
  $var wire  1 n rg_bypass_mean $end
  $var wire  1 m rg_calphase_en $end
  $var wire  3 o rg_cordic_iternum [2:0] $end
  $var wire  8 "! rg_cos_table_0 [7:0] $end
  $var wire  8 #! rg_cos_table_1 [7:0] $end
  $var wire  8 $! rg_cos_table_2 [7:0] $end
  $var wire  8 %! rg_cos_table_3 [7:0] $end
  $var wire  8 &! rg_cos_table_4 [7:0] $end
  $var wire  8 '! rg_cos_table_5 [7:0] $end
  $var wire  8 (! rg_cos_table_6 [7:0] $end
  $var wire  8 )! rg_cos_table_7 [7:0] $end
  $var wire  8 p rg_leakage_table_0 [7:0] $end
  $var wire  8 q rg_leakage_table_1 [7:0] $end
  $var wire  8 r rg_leakage_table_2 [7:0] $end
  $var wire  8 s rg_leakage_table_3 [7:0] $end
  $var wire  8 t rg_leakage_table_4 [7:0] $end
  $var wire  8 u rg_leakage_table_5 [7:0] $end
  $var wire  8 v rg_leakage_table_6 [7:0] $end
  $var wire  8 w rg_leakage_table_7 [7:0] $end
  $var wire  8 x rg_sin_table_0 [7:0] $end
  $var wire  8 y rg_sin_table_1 [7:0] $end
  $var wire  8 z rg_sin_table_2 [7:0] $end
  $var wire  8 { rg_sin_table_3 [7:0] $end
  $var wire  8 | rg_sin_table_4 [7:0] $end
  $var wire  8 } rg_sin_table_5 [7:0] $end
  $var wire  8 ~ rg_sin_table_6 [7:0] $end
  $var wire  8 !! rg_sin_table_7 [7:0] $end
  $var wire  3 *! valid_num [2:0] $end
  $var wire  8 ,! vin1 [7:0] $end
  $var wire  8 -! vin2 [7:0] $end
  $var wire  1 +! vin_vld $end
  $scope module cal_phase $end
   $var wire  1 > calvn_finish $end
   $var wire  1 > calvn_finish_1 $end
   $var wire  8 5 calvn_mean [7:0] $end
   $var wire  8 6 calvn_vn_0 [7:0] $end
   $var wire  8 7 calvn_vn_1 [7:0] $end
   $var wire  8 8 calvn_vn_2 [7:0] $end
   $var wire  8 9 calvn_vn_3 [7:0] $end
   $var wire  8 : calvn_vn_4 [7:0] $end
   $var wire  8 ; calvn_vn_5 [7:0] $end
   $var wire  8 < calvn_vn_6 [7:0] $end
   $var wire  8 = calvn_vn_7 [7:0] $end
   $var wire  1 0! clk $end
   $var wire 10 4 cordic_res [9:0] $end
   $var wire  1 B cordic_res_vld $end
   $var wire 16 ? dot_psum_out1 [15:0] $end
   $var wire 16 @ dot_psum_out2 [15:0] $end
   $var wire  1 A dot_psum_vld $end
   $var wire  8 5 mean [7:0] $end
   $var wire 10 4 ph_cal [9:0] $end
   $var wire  1 2! ph_vld $end
   $var wire 10 4 phase [9:0] $end
   $var wire  1 2! phase_vld $end
   $var wire 16 ? psum_out1 [15:0] $end
   $var wire 16 @ psum_out2 [15:0] $end
   $var wire  1 A psum_vld $end
   $var wire  1 1! reset $end
   $var wire  1 n rg_bypass_mean $end
   $var wire  1 m rg_calphase_en $end
   $var wire  3 o rg_cordic_iternum [2:0] $end
   $var wire  8 "! rg_cos_table_0 [7:0] $end
   $var wire  8 #! rg_cos_table_1 [7:0] $end
   $var wire  8 $! rg_cos_table_2 [7:0] $end
   $var wire  8 %! rg_cos_table_3 [7:0] $end
   $var wire  8 &! rg_cos_table_4 [7:0] $end
   $var wire  8 '! rg_cos_table_5 [7:0] $end
   $var wire  8 (! rg_cos_table_6 [7:0] $end
   $var wire  8 )! rg_cos_table_7 [7:0] $end
   $var wire  8 p rg_leakage_table_0 [7:0] $end
   $var wire  8 q rg_leakage_table_1 [7:0] $end
   $var wire  8 r rg_leakage_table_2 [7:0] $end
   $var wire  8 s rg_leakage_table_3 [7:0] $end
   $var wire  8 t rg_leakage_table_4 [7:0] $end
   $var wire  8 u rg_leakage_table_5 [7:0] $end
   $var wire  8 v rg_leakage_table_6 [7:0] $end
   $var wire  8 w rg_leakage_table_7 [7:0] $end
   $var wire  8 x rg_sin_table_0 [7:0] $end
   $var wire  8 y rg_sin_table_1 [7:0] $end
   $var wire  8 z rg_sin_table_2 [7:0] $end
   $var wire  8 { rg_sin_table_3 [7:0] $end
   $var wire  8 | rg_sin_table_4 [7:0] $end
   $var wire  8 } rg_sin_table_5 [7:0] $end
   $var wire  8 ~ rg_sin_table_6 [7:0] $end
   $var wire  8 !! rg_sin_table_7 [7:0] $end
   $var wire  3 *! valid_num [2:0] $end
   $var wire  3 3! valid_num_true [2:0] $end
   $var wire  8 ,! vin1 [7:0] $end
   $var wire  8 -! vin2 [7:0] $end
   $var wire  1 +! vin_vld $end
   $var wire  8 6 vn_0 [7:0] $end
   $var wire  8 7 vn_1 [7:0] $end
   $var wire  8 8 vn_2 [7:0] $end
   $var wire  8 9 vn_3 [7:0] $end
   $var wire  8 : vn_4 [7:0] $end
   $var wire  8 ; vn_5 [7:0] $end
   $var wire  8 < vn_6 [7:0] $end
   $var wire  8 = vn_7 [7:0] $end
   $scope module calvn $end
    $var wire  8 6 Vins_0 [7:0] $end
    $var wire  8 7 Vins_1 [7:0] $end
    $var wire  8 8 Vins_2 [7:0] $end
    $var wire  8 9 Vins_3 [7:0] $end
    $var wire  8 : Vins_4 [7:0] $end
    $var wire  8 ; Vins_5 [7:0] $end
    $var wire  8 < Vins_6 [7:0] $end
    $var wire  8 = Vins_7 [7:0] $end
    $var wire  8 # bigger [7:0] $end
    $var wire  1 0! clk $end
    $var wire  1 & data_load_finish $end
    $var wire  1 m en $end
    $var wire  1 > finish $end
    $var wire  8 D max_v [7:0] $end
    $var wire  8 5 mean [7:0] $end
    $var wire  1 4! mean_finish $end
    $var wire  1 > mean_finish_regNext $end
    $var wire  8 E min_v [7:0] $end
    $var wire  1 1! reset $end
    $var wire  1 n rg_bypass_mean $end
    $var wire  8 p rg_leakage_table_0 [7:0] $end
    $var wire  8 q rg_leakage_table_1 [7:0] $end
    $var wire  8 r rg_leakage_table_2 [7:0] $end
    $var wire  8 s rg_leakage_table_3 [7:0] $end
    $var wire  8 t rg_leakage_table_4 [7:0] $end
    $var wire  8 u rg_leakage_table_5 [7:0] $end
    $var wire  8 v rg_leakage_table_6 [7:0] $end
    $var wire  8 w rg_leakage_table_7 [7:0] $end
    $var wire  8 $ smaller [7:0] $end
    $var wire  1 % v1gtv2 $end
    $var wire  3 C v_cnt [2:0] $end
    $var wire  3 *! valid_num [2:0] $end
    $var wire  8 ,! vin1 [7:0] $end
    $var wire  8 -! vin2 [7:0] $end
    $var wire  1 +! vin_vld $end
    $var wire  8 6 vn_0 [7:0] $end
    $var wire  8 7 vn_1 [7:0] $end
    $var wire  8 8 vn_2 [7:0] $end
    $var wire  8 9 vn_3 [7:0] $end
    $var wire  8 : vn_4 [7:0] $end
    $var wire  8 ; vn_5 [7:0] $end
    $var wire  8 < vn_6 [7:0] $end
    $var wire  8 = vn_7 [7:0] $end
   $upscope $end
   $scope module cordic $end
    $var wire  7 9! KAngle_0 [6:0] $end
    $var wire  7 :! KAngle_1 [6:0] $end
    $var wire  7 ;! KAngle_2 [6:0] $end
    $var wire  7 <! KAngle_3 [6:0] $end
    $var wire  7 =! KAngle_4 [6:0] $end
    $var wire  7 >! KAngle_5 [6:0] $end
    $var wire  7 >! KAngle_6 [6:0] $end
    $var wire  3 e cal_cnt [2:0] $end
    $var wire  1 f cal_en $end
    $var wire  1 i cal_en_regNext $end
    $var wire  1 + cal_finish $end
    $var wire  1 l cal_finish_delay $end
    $var wire  1 g cal_start $end
    $var wire  1 0! clk $end
    $var wire  1 m en $end
    $var wire  1 B finish $end
    $var wire  1 h nozero_flg $end
    $var wire 10 4 res [9:0] $end
    $var wire 10 4 res_out [9:0] $end
    $var wire 11 ` res_rg [10:0] $end
    $var wire  1 B res_vld $end
    $var wire  1 1! reset $end
    $var wire  3 o rg_cordic_iternum [2:0] $end
    $var wire  1 A vld $end
    $var wire 16 ? x [15:0] $end
    $var wire 19 a x_ext [18:0] $end
    $var wire 19 c x_ins [18:0] $end
    $var wire 19 ^ xn [18:0] $end
    $var wire 19 j xn_rightshift [18:0] $end
    $var wire 16 @ y [15:0] $end
    $var wire 19 b y_ext [18:0] $end
    $var wire 19 d y_ins [18:0] $end
    $var wire 19 _ yn [18:0] $end
    $var wire 19 k yn_rightshift [18:0] $end
   $upscope $end
   $scope module dot $end
    $var wire 16 H booth_cos_io_dout [15:0] $end
    $var wire  1 5! booth_cos_io_dout_vld $end
    $var wire 16 G booth_sin_io_dout [15:0] $end
    $var wire  1 F booth_sin_io_dout_vld $end
    $var wire  1 Q booth_start $end
    $var wire  1 0! clk $end
    $var wire  1 m en $end
    $var wire  1 A finish $end
    $var wire  3 N mac_cnt [2:0] $end
    $var wire  1 O mac_en $end
    $var wire  1 6! mac_finish $end
    $var wire  1 P mac_start $end
    $var wire  8 5 mean [7:0] $end
    $var wire  1 F mul_done $end
    $var wire 16 G product1 [15:0] $end
    $var wire 16 H product2 [15:0] $end
    $var wire 19 K psum1 [18:0] $end
    $var wire 19 L psum2 [18:0] $end
    $var wire 16 ? psum_out1 [15:0] $end
    $var wire 16 @ psum_out2 [15:0] $end
    $var wire  1 A psum_vld $end
    $var wire  1 1! reset $end
    $var wire  8 "! rg_cos_table_0 [7:0] $end
    $var wire  8 #! rg_cos_table_1 [7:0] $end
    $var wire  8 $! rg_cos_table_2 [7:0] $end
    $var wire  8 %! rg_cos_table_3 [7:0] $end
    $var wire  8 &! rg_cos_table_4 [7:0] $end
    $var wire  8 '! rg_cos_table_5 [7:0] $end
    $var wire  8 (! rg_cos_table_6 [7:0] $end
    $var wire  8 )! rg_cos_table_7 [7:0] $end
    $var wire  8 x rg_sin_table_0 [7:0] $end
    $var wire  8 y rg_sin_table_1 [7:0] $end
    $var wire  8 z rg_sin_table_2 [7:0] $end
    $var wire  8 { rg_sin_table_3 [7:0] $end
    $var wire  8 | rg_sin_table_4 [7:0] $end
    $var wire  8 } rg_sin_table_5 [7:0] $end
    $var wire  8 ~ rg_sin_table_6 [7:0] $end
    $var wire  8 !! rg_sin_table_7 [7:0] $end
    $var wire 19 I s1 [18:0] $end
    $var wire 19 J s2 [18:0] $end
    $var wire  3 3! valid_num [2:0] $end
    $var wire  8 M vin_minus_mean [7:0] $end
    $var wire  8 M vin_true_in [7:0] $end
    $var wire  8 6 vn_in_0 [7:0] $end
    $var wire  8 7 vn_in_1 [7:0] $end
    $var wire  8 8 vn_in_2 [7:0] $end
    $var wire  8 9 vn_in_3 [7:0] $end
    $var wire  8 : vn_in_4 [7:0] $end
    $var wire  8 ; vn_in_5 [7:0] $end
    $var wire  8 < vn_in_6 [7:0] $end
    $var wire  8 = vn_in_7 [7:0] $end
    $var wire  1 > vn_vld $end
    $scope module booth_cos $end
     $var wire  8 0 AddB [7:0] $end
     $var wire  8 1 MinusB [7:0] $end
     $var wire  8 * NegativeB [7:0] $end
     $var wire  8 ) PositiveB [7:0] $end
     $var wire 17 3 aftershift [16:0] $end
     $var wire  8 2 beforeshift [7:0] $end
     $var wire  3 Z cal_cnt [2:0] $end
     $var wire  1 [ cal_en $end
     $var wire  1 8! cal_en_regNext $end
     $var wire  1 0! clk $end
     $var wire  2 Y flag_bits [1:0] $end
     $var wire  8 M io_dinA [7:0] $end
     $var wire  8 ) io_dinB [7:0] $end
     $var wire  1 Q io_din_vld $end
     $var wire 16 H io_dout [15:0] $end
     $var wire  1 5! io_dout_vld $end
     $var wire  1 1! reset $end
     $var wire 17 X shiftReg [16:0] $end
     $var wire  8 ] shiftReg_high [7:0] $end
     $var wire  9 \ shiftReg_low [8:0] $end
    $upscope $end
    $scope module booth_sin $end
     $var wire  8 , AddB [7:0] $end
     $var wire  8 - MinusB [7:0] $end
     $var wire  8 ( NegativeB [7:0] $end
     $var wire  8 ' PositiveB [7:0] $end
     $var wire 17 / aftershift [16:0] $end
     $var wire  8 . beforeshift [7:0] $end
     $var wire  3 T cal_cnt [2:0] $end
     $var wire  1 U cal_en $end
     $var wire  1 7! cal_en_regNext $end
     $var wire  1 0! clk $end
     $var wire  2 S flag_bits [1:0] $end
     $var wire  8 M io_dinA [7:0] $end
     $var wire  8 ' io_dinB [7:0] $end
     $var wire  1 Q io_din_vld $end
     $var wire 16 G io_dout [15:0] $end
     $var wire  1 F io_dout_vld $end
     $var wire  1 1! reset $end
     $var wire 17 R shiftReg [16:0] $end
     $var wire  8 W shiftReg_high [7:0] $end
     $var wire  9 V shiftReg_low [8:0] $end
    $upscope $end
   $upscope $end
  $upscope $end
 $upscope $end
$enddefinitions $end


#0
b01111111 #
b01001001 $
0%
0&
b11001001 '
b00110111 (
b11110010 )
b00001110 *
0+
b11001001 ,
b00110111 -
b00000000 .
b00000000000000000 /
b11110010 0
b00001110 1
b00000000 2
b00000000000000000 3
b0000000000 4
b00000000 5
b00000000 6
b00000000 7
b00000000 8
b00000000 9
b00000000 :
b00000000 ;
b00000000 <
b00000000 =
0>
b0000000000000000 ?
b0000000000000000 @
0A
0B
b000 C
b00000000 D
b00000000 E
1F
b0000000000000000 G
b0000000000000000 H
b0000000000000000000 I
b0000000000000000000 J
b0000000000000000000 K
b0000000000000000000 L
b00000000 M
b000 N
0O
1P
0Q
b00000000000000000 R
b00 S
b000 T
0U
b000000000 V
b00000000 W
b00000000000000000 X
b00 Y
b000 Z
0[
b000000000 \
b00000000 ]
b0000000000000000000 ^
b0000000000000000000 _
b00000000000 `
b0000000000000000000 a
b0000000000000000000 b
b0000000000000000000 c
b0000000000000000000 d
b000 e
0f
0g
1h
0i
b0000000000000000000 j
b0000000000000000000 k
0l
0m
0n
b110 o
b10111100 p
b10111101 q
b01001011 r
b00010001 s
b01100010 t
b01011000 u
b00011000 v
b11100101 w
b11001001 x
b11101110 y
b10000010 z
b11111101 {
b00000100 |
b10100100 }
b00111011 ~
b00011010 !!
b11110010 "!
b00100000 #!
b10001010 $!
b11101111 %!
b11000011 &!
b10011011 '!
b11011101 (!
b00100110 )!
b100 *!
0+!
b01001001 ,!
b01111111 -!
0.!
b0000000000 /!
00!
11!
02!
b111 3!
04!
05!
06!
17!
08!
b0100000 9!
b0010011 :!
b0001010 ;!
b0000101 <!
b0000011 =!
b0000001 >!
#80
01!
#85
b00000000 '
b00000000 (
b01111111 )
b10000001 *
b00000000 ,
b00000000 -
b01111111 0
b10000001 1
0F
0P
b00000000 p
b00000000 q
b00000000 r
b00000000 s
b00000000 t
b00000000 u
b00000000 v
b00000000 w
b00000000 x
b01100011 y
b01111100 z
b00110111 {
b11001001 |
b10000100 }
b10011101 ~
b00000000 !!
b01111111 "!
b01001111 #!
b11100100 $!
b10001110 %!
b10001110 &!
b11100100 '!
b01001111 (!
b01111111 )!
10!
07!
#87
00!
#89
10!
#91
00!
#93
10!
#95
00!
#97
10!
#99
00!
#101
10!
#103
00!
#105
10!
#107
00!
#109
10!
#111
00!
#113
10!
#115
00!
#117
10!
#119
00!
#121
10!
#123
00!
#125
10!
#127
00!
#129
10!
#131
00!
#133
10!
#135
00!
#137
10!
#139
00!
#141
10!
#143
00!
#145
10!
#147
00!
#149
10!
#151
00!
#153
10!
#155
00!
#157
10!
#159
00!
#161
10!
#163
00!
#165
10!
#167
00!
#169
10!
#171
00!
#173
10!
#175
00!
#177
10!
#179
00!
#181
10!
#183
00!
#185
10!
#187
00!
#189
10!
#191
00!
#193
10!
#195
00!
#197
10!
#199
00!
#201
10!
#203
00!
#205
10!
#207
00!
#209
10!
#211
00!
#213
10!
#215
00!
#217
10!
#219
00!
#221
10!
#223
00!
#225
10!
#227
00!
#229
10!
#231
00!
#233
10!
#235
00!
#237
10!
#239
00!
#241
10!
#243
00!
#245
10!
#247
00!
#249
10!
#251
00!
#253
10!
#255
00!
#257
10!
#259
00!
#261
10!
#263
00!
#265
10!
#267
00!
#269
10!
#271
00!
#273
10!
#275
00!
#277
10!
#279
00!
#281
10!
#283
00!
#285
b01101110 #
b00101000 $
1m
1+!
b00101000 ,!
b01101110 -!
10!
#287
00!
#289
b01111111 #
b01011011 $
1%
b01001011 5
b00101000 6
b01101110 7
b001 C
b01101110 D
b00101000 E
b11011101 M
b01111111 ,!
b01011011 -!
10!
#291
00!
#293
b00001010 #
b10110100 $
b01010011 5
b01111111 8
b01011011 9
b010 C
b01111111 D
b11010101 M
b00001010 ,!
b10110100 -!
10!
#295
00!
#297
b10001001 #
b10000011 $
0%
1&
b00011001 5
b00001010 :
b10110100 ;
b011 C
b10110100 E
b00001111 M
b10000011 ,!
b10001001 -!
10!
14!
#299
00!
#301
0&
b00000000 5
b10000011 <
b10001001 =
1>
b000 C
b10000011 E
b00101000 M
0+!
10!
04!
#303
00!
#305
0>
1O
1Q
10!
#307
00!
#309
b00000000000101000 /
b00000000000101000 3
b0000000000101000 G
b0000000000101000 H
b0000000000000001010 I
b0000000000000001010 J
0Q
b00000000001010000 R
1U
b001010000 V
b00000000001010000 X
1[
b001010000 \
10!
#311
00!
#313
b00000000000010100 /
b00000000000010100 3
b0000000000010100 G
b0000000000010100 H
b0000000000000000101 I
b0000000000000000101 J
b00000000000101000 R
b001 T
b000101000 V
b00000000000101000 X
b001 Z
b000101000 \
10!
17!
18!
#315
00!
#317
b00000000000001010 /
b00000000000001010 3
b0000000000001010 G
b0000000000001010 H
b0000000000000000010 I
b0000000000000000010 J
b00000000000010100 R
b010 T
b000010100 V
b00000000000010100 X
b010 Z
b000010100 \
10!
#319
00!
#321
b00000000000000101 /
b10000001 2
b11000000100000101 3
b0000000000000101 G
b0000000000000101 H
b0000000000000000001 I
b0000000000000000001 J
b00000000000001010 R
b10 S
b011 T
b000001010 V
b00000000000001010 X
b10 Y
b011 Z
b000001010 \
10!
#323
00!
#325
b00000000000000010 /
b00111111 0
b01000001 1
b00111111 2
b00011111110000010 3
b0000000000000010 G
b1100000010000010 H
b0000000000000000000 I
b1111111000000100000 J
b00000000000000101 R
b01 S
b100 T
b000000101 V
b11000000100000101 X
b01 Y
b100 Z
b100000101 \
b11000000 ]
10!
#327
00!
#329
b00000000000000001 /
b10011110 0
b10100000 1
b10100000 2
b11010000011000001 3
b0000000000000001 G
b0001111111000001 H
b0000000011111110000 J
b00000000000000010 R
b10 S
b101 T
b000000010 V
b00011111110000010 X
b10 Y
b101 Z
b110000010 \
b00011111 ]
10!
#331
00!
#333
b00000000000000000 /
b01001111 0
b01010001 1
b01001111 2
b00100111101100000 3
b0000000000000000 G
b1101000001100000 H
b1111111010000011000 J
b00000000000000001 R
b01 S
b110 T
b000000001 V
b11010000011000001 X
b01 Y
b110 Z
b011000001 \
b11010000 ]
10!
#335
00!
#337
b10100110 0
b10101000 1
b00100111 2
b00010011110110000 3
b0010011110110000 H
b0000000100111101100 J
b00000000000000000 R
b00 S
b111 T
b000000000 V
b00100111101100000 X
b00 Y
b111 Z
b101100000 \
b00100111 ]
10!
#339
00!
#341
b10010010 0
b10010100 1
b00010011 2
b00001001111011000 3
1F
b0001001111011000 H
b0000000010011110110 J
1P
b000 T
0U
b00010011110110000 X
b000 Z
0[
b110110000 \
b00010011 ]
10!
15!
#343
00!
#345
b01100011 '
b10011101 (
b01001111 )
b10110001 *
b01100011 ,
b10011101 -
b01100010 0
b11000100 1
b0000010011110110 @
0F
b0000000010011110110 L
b01101110 M
b001 N
0P
1Q
b0000000010011110110 b
b1111111101100001010 d
10!
05!
07!
08!
#347
00!
#349
b00000000001101110 /
b01001111 0
b10110001 1
b00000000 2
b00000000001101110 3
b0000000001101110 G
b0000000001101110 H
b0000000000000011011 I
b0000000000000011011 J
0Q
b00000000011011100 R
1U
b011011100 V
b00000000011011100 X
1[
b011011100 \
b00000000 ]
10!
#351
00!
#353
b10011101 .
b11001110100110111 /
b10110001 2
b11011000100110111 3
b0000000000110111 G
b0000000000110111 H
b0000000000000001101 I
b0000000000000001101 J
b00000000001101110 R
b10 S
b001 T
b001101110 V
b00000000001101110 X
b10 Y
b001 Z
b001101110 \
10!
17!
18!
#355
00!
#357
b00110001 ,
b01101011 -
b11001110 .
b11100111010011011 /
b00100111 0
b10001001 1
b11011000 2
b11101100010011011 3
b1100111010011011 G
b1101100010011011 H
b1111111001110100110 I
b1111111011000100110 J
b11001110100110111 R
b11 S
b010 T
b100110111 V
b11001110 W
b11011000100110111 X
b11 Y
b010 Z
b100110111 \
b11011000 ]
10!
#359
00!
#361
b01001010 ,
b10000100 -
b11100111 .
b11110011101001101 /
b00111011 0
b10011101 1
b11101100 2
b11110110001001101 3
b1110011101001101 G
b1110110001001101 H
b1111111100111010011 I
b1111111101100010011 J
b11100111010011011 R
b011 T
b010011011 V
b11100111 W
b11101100010011011 X
b011 Z
b010011011 \
b11101100 ]
10!
#363
00!
#365
b01010110 ,
b10010000 -
b01010110 .
b00101011010100110 /
b01000101 0
b10100111 1
b01000101 2
b00100010100100110 3
b1111001110100110 G
b1111011000100110 H
b1111111110011101001 I
b1111111110110001001 J
b11110011101001101 R
b01 S
b100 T
b101001101 V
b11110011 W
b11110110001001101 X
b01 Y
b100 Z
b001001101 \
b11110110 ]
10!
#367
00!
#369
b10001110 ,
b11001000 -
b11001000 .
b11100100001010011 /
b01110001 0
b11010011 1
b11010011 2
b11101001110010011 3
b0010101101010011 G
b0010001010010011 H
b0000000101011010100 I
b0000000100010100100 J
b00101011010100110 R
b10 S
b101 T
b010100110 V
b00101011 W
b00100010100100110 X
b10 Y
b101 Z
b100100110 \
b00100010 ]
10!
#371
00!
#373
b01000111 ,
b10000001 -
b11100100 .
b11110010000101001 /
b00111000 0
b10011010 1
b11101001 2
b11110100111001001 3
b1110010000101001 G
b1110100111001001 H
b1111111100100001010 I
b1111111101001110010 J
b11100100001010011 R
b11 S
b110 T
b001010011 V
b11100100 W
b11101001110010011 X
b11 Y
b110 Z
b110010011 \
b11101001 ]
10!
#375
00!
#377
b01010101 ,
b10001111 -
b01010101 .
b00101010100010100 /
b01000011 0
b10100101 1
b01000011 2
b00100001111100100 3
b1111001000010100 G
b1111010011100100 H
b1111111110010000101 I
b1111111110100111001 J
b11110010000101001 R
b01 S
b111 T
b000101001 V
b11110010 W
b11110100111001001 X
b01 Y
b111 Z
b111001001 \
b11110100 ]
10!
#379
00!
#381
b10001101 ,
b11000111 -
b00101010 .
b00010101010001010 /
b01110000 0
b11010010 1
b00100001 2
b00010000111110010 3
1F
b0010101010001010 G
b0010000111110010 H
b0000000101010100010 I
b0000000100001111100 J
b00101010100010100 R
b00 S
b000 T
0U
b100010100 V
b00101010 W
b00100001111100100 X
b00 Y
b000 Z
0[
b111100100 \
b00100001 ]
10!
15!
#383
00!
#385
b01111100 '
b10000100 (
b11100100 )
b00011100 *
b10100110 ,
b10101110 -
b00000101 0
b00111101 1
b0000101010100010 ?
b0000110101110010 @
0F
b0000000101010100010 K
b0000000110101110010 L
b01111111 M
b010 N
1Q
b0000000101010100010 a
b0000000110101110010 b
b1111111010101011110 c
b1111111001010001110 d
10!
05!
07!
08!
#387
00!
#389
b01111100 ,
b10000100 -
b10000100 .
b11000010001111111 /
b11100100 0
b00011100 1
b00011100 2
b00001110001111111 3
b0000000001111111 G
b0000000001111111 H
b0000000000000011111 I
b0000000000000011111 J
0Q
b00000000011111110 R
b10 S
1U
b011111110 V
b00000000 W
b00000000011111110 X
b10 Y
1[
b011111110 \
b00000000 ]
10!
#391
00!
#393
b00111110 ,
b01000110 -
b11000010 .
b11100001000111111 /
b11110010 0
b00101010 1
b00001110 2
b00000111000111111 3
b1100001000111111 G
b0000111000111111 H
b1111111000010001111 I
b0000000001110001111 J
b11000010001111111 R
b11 S
b001 T
b001111111 V
b11000010 W
b00001110001111111 X
b11 Y
b001 Z
b001111111 \
b00001110 ]
10!
17!
18!
#395
00!
#397
b01011101 ,
b01100101 -
b11100001 .
b11110000100011111 /
b11101011 0
b00100011 1
b00000111 2
b00000011100011111 3
b1110000100011111 G
b0000011100011111 H
b1111111100001000111 I
b0000000000111000111 J
b11100001000111111 R
b010 T
b000111111 V
b11100001 W
b00000111000111111 X
b010 Z
b000111111 \
b00000111 ]
10!
#399
00!
#401
b01101100 ,
b01110100 -
b11110000 .
b11111000010001111 /
b11100111 0
b00011111 1
b00000011 2
b00000001110001111 3
b1111000010001111 G
b0000001110001111 H
b1111111110000100011 I
b0000000000011100011 J
b11110000100011111 R
b011 T
b100011111 V
b11110000 W
b00000011100011111 X
b011 Z
b100011111 \
b00000011 ]
10!
#403
00!
#405
b01110100 ,
b01111100 -
b11111000 .
b11111100001000111 /
b11100101 0
b00011101 1
b00000001 2
b00000000111000111 3
b1111100001000111 G
b0000000111000111 H
b1111111111000010001 I
b0000000000001110001 J
b11111000010001111 R
b100 T
b010001111 V
b11111000 W
b00000001110001111 X
b100 Z
b110001111 \
b00000001 ]
10!
#407
00!
#409
b01111000 ,
b10000000 -
b11111100 .
b11111110000100011 /
b11100100 0
b00011100 1
b00000000 2
b00000000011100011 3
b1111110000100011 G
b0000000011100011 H
b1111111111100001000 I
b0000000000000111000 J
b11111100001000111 R
b101 T
b001000111 V
b11111100 W
b00000000111000111 X
b101 Z
b111000111 \
b00000000 ]
10!
#411
00!
#413
b01111010 ,
b10000010 -
b11111110 .
b11111111000010001 /
b00000000001110001 3
b1111111000010001 G
b0000000001110001 H
b1111111111110000100 I
b0000000000000011100 J
b11111110000100011 R
b110 T
b000100011 V
b11111110 W
b00000000011100011 X
b110 Z
b011100011 \
10!
#415
00!
#417
b01111011 ,
b10000011 -
b01111011 .
b00111101100001000 /
b11100100 2
b11110010000111000 3
b1111111100001000 G
b0000000000111000 H
b1111111111111000010 I
b0000000000000001110 J
b11111111000010001 R
b01 S
b111 T
b000010001 V
b11111111 W
b00000000001110001 X
b01 Y
b111 Z
b001110001 \
10!
#419
00!
#421
b10111001 ,
b11000001 -
b00111101 .
b00011110110000100 /
b11010110 0
b00001110 1
b11110010 2
b11111001000011100 3
1F
b0011110110000100 G
b1111001000011100 H
b0000000111101100001 I
b1111111110010000111 J
b00111101100001000 R
b00 S
b000 T
0U
b100001000 V
b00111101 W
b11110010000111000 X
b00 Y
b000 Z
0[
b000111000 \
b11110010 ]
10!
15!
#423
00!
#425
b00110111 '
b11001001 (
b10001110 )
b01110010 *
b01110100 ,
b00000110 -
b10000000 0
b01100100 1
b0001101000000011 ?
b0000100111111001 @
0F
b0000001101000000011 K
b0000000100111111001 L
b01011011 M
b011 N
1Q
b0000001101000000011 a
b0000000100111111001 b
b1111110010111111101 c
b1111111011000000111 d
10!
05!
07!
08!
#427
00!
#429
b00110111 ,
b11001001 -
b11001001 .
b11100100101011011 /
b10001110 0
b01110010 1
b01110010 2
b00111001001011011 3
b0000000001011011 G
b0000000001011011 H
b0000000000000010110 I
b0000000000000010110 J
0Q
b00000000010110110 R
b10 S
1U
b010110110 V
b00000000 W
b00000000010110110 X
b10 Y
1[
b010110110 \
b00000000 ]
10!
#431
00!
#433
b00011011 ,
b10101101 -
b11100100 .
b11110010010101101 /
b11000111 0
b10101011 1
b00111001 2
b00011100100101101 3
b1110010010101101 G
b0011100100101101 H
b1111111100100101011 I
b0000000111001001011 J
b11100100101011011 R
b11 S
b001 T
b101011011 V
b11100100 W
b00111001001011011 X
b11 Y
b001 Z
b001011011 \
b00111001 ]
10!
17!
18!
#435
00!
#437
b00101001 ,
b10111011 -
b00101001 .
b00010100101010110 /
b10101010 0
b10001110 1
b10101010 2
b11010101010010110 3
b1111001001010110 G
b0001110010010110 H
b1111111110010010101 I
b0000000011100100101 J
b11110010010101101 R
b01 S
b010 T
b010101101 V
b11110010 W
b00011100100101101 X
b01 Y
b010 Z
b100101101 \
b00011100 ]
10!
#439
00!
#441
b01001011 ,
b11011101 -
b11011101 .
b11101110110101011 /
b01100011 0
b01000111 1
b01000111 2
b00100011101001011 3
b0001010010101011 G
b1101010101001011 H
b0000000010100101010 I
b1111111010101010010 J
b00010100101010110 R
b10 S
b011 T
b101010110 V
b00010100 W
b11010101010010110 X
b10 Y
b011 Z
b010010110 \
b11010101 ]
10!
#443
00!
#445
b00100101 ,
b10110111 -
b11101110 .
b11110111011010101 /
b10110001 0
b10010101 1
b00100011 2
b00010001110100101 3
b1110111011010101 G
b0010001110100101 H
b1111111101110110101 I
b0000000100011101001 J
b11101110110101011 R
b11 S
b100 T
b110101011 V
b11101110 W
b00100011101001011 X
b11 Y
b100 Z
b101001011 \
b00100011 ]
10!
#447
00!
#449
b00101110 ,
b11000000 -
b00101110 .
b00010111001101010 /
b10011111 0
b10000011 1
b10011111 2
b11001111111010010 3
b1111011101101010 G
b0001000111010010 H
b1111111110111011010 I
b0000000010001110100 J
b11110111011010101 R
b01 S
b101 T
b011010101 V
b11110111 W
b00010001110100101 X
b01 Y
b101 Z
b110100101 \
b00010001 ]
10!
#451
00!
#453
b01001110 ,
b11100000 -
b11100000 .
b11110000000110101 /
b01011101 0
b01000001 1
b01000001 2
b00100000111101001 3
b0001011100110101 G
b1100111111101001 H
b0000000010111001101 I
b1111111001111111010 J
b00010111001101010 R
b10 S
b110 T
b001101010 V
b00010111 W
b11001111111010010 X
b10 Y
b110 Z
b111010010 \
b11001111 ]
10!
#455
00!
#457
b00100111 ,
b10111001 -
b00100111 .
b00010011100011010 /
b10101110 0
b10010010 1
b10101110 2
b11010111011110100 3
b1111000000011010 G
b0010000011110100 H
b1111111110000000110 I
b0000000100000111101 J
b11110000000110101 R
b01 S
b111 T
b000110101 V
b11110000 W
b00100000111101001 X
b01 Y
b111 Z
b111101001 \
b00100000 ]
10!
#459
00!
