cardiff-b0/simWorkspace/cal_phase/test.vcd
$version Generated by VerilatedVcd $end
$date Wed Dec 22 18:23:51 2021
 $end
$timescale   1ps $end

 $scope module TOP $end
  $var wire  1 8! clk $end
  $var wire 10 7! phase [9:0] $end
  $var wire  1 6! phase_vld $end
  $var wire  1 9! reset $end
  $var wire  1 v rg_bypass_mean $end
  $var wire  1 u rg_calphase_en $end
  $var wire  3 w rg_cordic_iternum [2:0] $end
  $var wire  8 *! rg_cos_table_0 [7:0] $end
  $var wire  8 +! rg_cos_table_1 [7:0] $end
  $var wire  8 ,! rg_cos_table_2 [7:0] $end
  $var wire  8 -! rg_cos_table_3 [7:0] $end
  $var wire  8 .! rg_cos_table_4 [7:0] $end
  $var wire  8 /! rg_cos_table_5 [7:0] $end
  $var wire  8 0! rg_cos_table_6 [7:0] $end
  $var wire  8 1! rg_cos_table_7 [7:0] $end
  $var wire  8 x rg_leakage_table_0 [7:0] $end
  $var wire  8 y rg_leakage_table_1 [7:0] $end
  $var wire  8 z rg_leakage_table_2 [7:0] $end
  $var wire  8 { rg_leakage_table_3 [7:0] $end
  $var wire  8 | rg_leakage_table_4 [7:0] $end
  $var wire  8 } rg_leakage_table_5 [7:0] $end
  $var wire  8 ~ rg_leakage_table_6 [7:0] $end
  $var wire  8 !! rg_leakage_table_7 [7:0] $end
  $var wire  8 "! rg_sin_table_0 [7:0] $end
  $var wire  8 #! rg_sin_table_1 [7:0] $end
  $var wire  8 $! rg_sin_table_2 [7:0] $end
  $var wire  8 %! rg_sin_table_3 [7:0] $end
  $var wire  8 &! rg_sin_table_4 [7:0] $end
  $var wire  8 '! rg_sin_table_5 [7:0] $end
  $var wire  8 (! rg_sin_table_6 [7:0] $end
  $var wire  8 )! rg_sin_table_7 [7:0] $end
  $var wire  3 2! valid_num [2:0] $end
  $var wire  8 4! vin1 [7:0] $end
  $var wire  8 5! vin2 [7:0] $end
  $var wire  1 3! vin_vld $end
  $scope module cal_phase $end
   $var wire  1 F calvn_finish $end
   $var wire  1 F calvn_finish_1 $end
   $var wire  8 = calvn_mean [7:0] $end
   $var wire  8 > calvn_vn_0 [7:0] $end
   $var wire  8 ? calvn_vn_1 [7:0] $end
   $var wire  8 @ calvn_vn_2 [7:0] $end
   $var wire  8 A calvn_vn_3 [7:0] $end
   $var wire  8 B calvn_vn_4 [7:0] $end
   $var wire  8 C calvn_vn_5 [7:0] $end
   $var wire  8 D calvn_vn_6 [7:0] $end
   $var wire  8 E calvn_vn_7 [7:0] $end
   $var wire  1 8! clk $end
   $var wire 10 < cordic_res [9:0] $end
   $var wire  1 J cordic_res_vld $end
   $var wire 16 G dot_psum_out1 [15:0] $end
   $var wire 16 H dot_psum_out2 [15:0] $end
   $var wire  1 I dot_psum_vld $end
   $var wire  8 = mean [7:0] $end
   $var wire 10 < ph_cal [9:0] $end
   $var wire  1 :! ph_vld $end
   $var wire 10 < phase [9:0] $end
   $var wire  1 :! phase_vld $end
   $var wire 16 G psum_out1 [15:0] $end
   $var wire 16 H psum_out2 [15:0] $end
   $var wire  1 I psum_vld $end
   $var wire  1 9! reset $end
   $var wire  1 v rg_bypass_mean $end
   $var wire  1 u rg_calphase_en $end
   $var wire  3 w rg_cordic_iternum [2:0] $end
   $var wire  8 *! rg_cos_table_0 [7:0] $end
   $var wire  8 +! rg_cos_table_1 [7:0] $end
   $var wire  8 ,! rg_cos_table_2 [7:0] $end
   $var wire  8 -! rg_cos_table_3 [7:0] $end
   $var wire  8 .! rg_cos_table_4 [7:0] $end
   $var wire  8 /! rg_cos_table_5 [7:0] $end
   $var wire  8 0! rg_cos_table_6 [7:0] $end
   $var wire  8 1! rg_cos_table_7 [7:0] $end
   $var wire  8 x rg_leakage_table_0 [7:0] $end
   $var wire  8 y rg_leakage_table_1 [7:0] $end
   $var wire  8 z rg_leakage_table_2 [7:0] $end
   $var wire  8 { rg_leakage_table_3 [7:0] $end
   $var wire  8 | rg_leakage_table_4 [7:0] $end
   $var wire  8 } rg_leakage_table_5 [7:0] $end
   $var wire  8 ~ rg_leakage_table_6 [7:0] $end
   $var wire  8 !! rg_leakage_table_7 [7:0] $end
   $var wire  8 "! rg_sin_table_0 [7:0] $end
   $var wire  8 #! rg_sin_table_1 [7:0] $end
   $var wire  8 $! rg_sin_table_2 [7:0] $end
   $var wire  8 %! rg_sin_table_3 [7:0] $end
   $var wire  8 &! rg_sin_table_4 [7:0] $end
   $var wire  8 '! rg_sin_table_5 [7:0] $end
   $var wire  8 (! rg_sin_table_6 [7:0] $end
   $var wire  8 )! rg_sin_table_7 [7:0] $end
   $var wire  3 2! valid_num [2:0] $end
   $var wire  3 ;! valid_num_true [2:0] $end
   $var wire  8 4! vin1 [7:0] $end
   $var wire  8 5! vin2 [7:0] $end
   $var wire  1 3! vin_vld $end
   $var wire  8 > vn_0 [7:0] $end
   $var wire  8 ? vn_1 [7:0] $end
   $var wire  8 @ vn_2 [7:0] $end
   $var wire  8 A vn_3 [7:0] $end
   $var wire  8 B vn_4 [7:0] $end
   $var wire  8 C vn_5 [7:0] $end
   $var wire  8 D vn_6 [7:0] $end
   $var wire  8 E vn_7 [7:0] $end
   $scope module calvn $end
    $var wire  8 > Vins_0 [7:0] $end
    $var wire  8 ? Vins_1 [7:0] $end
    $var wire  8 @ Vins_2 [7:0] $end
    $var wire  8 A Vins_3 [7:0] $end
    $var wire  8 B Vins_4 [7:0] $end
    $var wire  8 C Vins_5 [7:0] $end
    $var wire  8 D Vins_6 [7:0] $end
    $var wire  8 E Vins_7 [7:0] $end
    $var wire  8 # bigger [7:0] $end
    $var wire  1 8! clk $end
    $var wire  1 & data_load_finish $end
    $var wire  1 u en $end
    $var wire  1 F finish $end
    $var wire  8 L max_v [7:0] $end
    $var wire  8 = mean [7:0] $end
    $var wire  1 <! mean_finish $end
    $var wire  1 F mean_finish_regNext $end
    $var wire  8 M min_v [7:0] $end
    $var wire  1 9! reset $end
    $var wire  1 v rg_bypass_mean $end
    $var wire  8 x rg_leakage_table_0 [7:0] $end
    $var wire  8 y rg_leakage_table_1 [7:0] $end
    $var wire  8 z rg_leakage_table_2 [7:0] $end
    $var wire  8 { rg_leakage_table_3 [7:0] $end
    $var wire  8 | rg_leakage_table_4 [7:0] $end
    $var wire  8 } rg_leakage_table_5 [7:0] $end
    $var wire  8 ~ rg_leakage_table_6 [7:0] $end
    $var wire  8 !! rg_leakage_table_7 [7:0] $end
    $var wire  8 $ smaller [7:0] $end
    $var wire  1 % v1gtv2 $end
    $var wire  3 K v_cnt [2:0] $end
    $var wire  3 2! valid_num [2:0] $end
    $var wire  8 4! vin1 [7:0] $end
    $var wire  8 5! vin2 [7:0] $end
    $var wire  1 3! vin_vld $end
    $var wire  8 > vn_0 [7:0] $end
    $var wire  8 ? vn_1 [7:0] $end
    $var wire  8 @ vn_2 [7:0] $end
    $var wire  8 A vn_3 [7:0] $end
    $var wire  8 B vn_4 [7:0] $end
    $var wire  8 C vn_5 [7:0] $end
    $var wire  8 D vn_6 [7:0] $end
    $var wire  8 E vn_7 [7:0] $end
   $upscope $end
   $scope module cordic $end
    $var wire  7 C! KAngle_0 [6:0] $end
    $var wire  7 D! KAngle_1 [6:0] $end
    $var wire  7 E! KAngle_2 [6:0] $end
    $var wire  7 F! KAngle_3 [6:0] $end
    $var wire  7 G! KAngle_4 [6:0] $end
    $var wire  7 H! KAngle_5 [6:0] $end
    $var wire  7 H! KAngle_6 [6:0] $end
    $var wire  3 m cal_cnt [2:0] $end
    $var wire  1 n cal_en $end
    $var wire  1 q cal_en_regNext $end
    $var wire  1 3 cal_finish $end
    $var wire  1 t cal_finish_delay $end
    $var wire  1 o cal_start $end
    $var wire  1 8! clk $end
    $var wire  1 u en $end
    $var wire  1 J finish $end
    $var wire  1 p nozero_flg $end
    $var wire 10 < res [9:0] $end
    $var wire 10 < res_out [9:0] $end
    $var wire 11 h res_rg [10:0] $end
    $var wire  1 J res_vld $end
    $var wire  1 9! reset $end
    $var wire  3 w rg_cordic_iternum [2:0] $end
    $var wire  1 I vld $end
    $var wire 16 G x [15:0] $end
    $var wire 19 i x_ext [18:0] $end
    $var wire 19 k x_ins [18:0] $end
    $var wire 19 f xn [18:0] $end
    $var wire 19 r xn_rightshift [18:0] $end
    $var wire 16 H y [15:0] $end
    $var wire 19 j y_ext [18:0] $end
    $var wire 19 l y_ins [18:0] $end
    $var wire 19 g yn [18:0] $end
    $var wire 19 s yn_rightshift [18:0] $end
   $upscope $end
   $scope module dot $end
    $var wire 16 P booth_cos_io_dout [15:0] $end
    $var wire  1 =! booth_cos_io_dout_vld $end
    $var wire 16 O booth_sin_io_dout [15:0] $end
    $var wire  1 N booth_sin_io_dout_vld $end
    $var wire  1 Y booth_start $end
    $var wire  1 8! clk $end
    $var wire  1 u en $end
    $var wire  1 I finish $end
    $var wire  3 V mac_cnt [2:0] $end
    $var wire  1 W mac_en $end
    $var wire  1 >! mac_finish $end
    $var wire  1 X mac_start $end
    $var wire  8 = mean [7:0] $end
    $var wire  1 N mul_done $end
    $var wire 16 O product1 [15:0] $end
    $var wire 16 P product2 [15:0] $end
    $var wire 19 S psum1 [18:0] $end
    $var wire 19 T psum2 [18:0] $end
    $var wire 16 G psum_out1 [15:0] $end
    $var wire 16 H psum_out2 [15:0] $end
    $var wire  1 I psum_vld $end
    $var wire  1 9! reset $end
    $var wire  8 *! rg_cos_table_0 [7:0] $end
    $var wire  8 +! rg_cos_table_1 [7:0] $end
    $var wire  8 ,! rg_cos_table_2 [7:0] $end
    $var wire  8 -! rg_cos_table_3 [7:0] $end
    $var wire  8 .! rg_cos_table_4 [7:0] $end
    $var wire  8 /! rg_cos_table_5 [7:0] $end
    $var wire  8 0! rg_cos_table_6 [7:0] $end
    $var wire  8 1! rg_cos_table_7 [7:0] $end
    $var wire  8 "! rg_sin_table_0 [7:0] $end
    $var wire  8 #! rg_sin_table_1 [7:0] $end
    $var wire  8 $! rg_sin_table_2 [7:0] $end
    $var wire  8 %! rg_sin_table_3 [7:0] $end
    $var wire  8 &! rg_sin_table_4 [7:0] $end
    $var wire  8 '! rg_sin_table_5 [7:0] $end
    $var wire  8 (! rg_sin_table_6 [7:0] $end
    $var wire  8 )! rg_sin_table_7 [7:0] $end
    $var wire 19 Q s1 [18:0] $end
    $var wire 19 R s2 [18:0] $end
    $var wire  3 ;! valid_num [2:0] $end
    $var wire  8 U vin_minus_mean [7:0] $end
    $var wire  8 U vin_true_in [7:0] $end
    $var wire  8 > vn_in_0 [7:0] $end
    $var wire  8 ? vn_in_1 [7:0] $end
    $var wire  8 @ vn_in_2 [7:0] $end
    $var wire  8 A vn_in_3 [7:0] $end
    $var wire  8 B vn_in_4 [7:0] $end
    $var wire  8 C vn_in_5 [7:0] $end
    $var wire  8 D vn_in_6 [7:0] $end
    $var wire  8 E vn_in_7 [7:0] $end
    $var wire  1 F vn_vld $end
    $scope module booth_cos $end
     $var wire  9 8 Add2B [8:0] $end
     $var wire  9 1 AddB [8:0] $end
     $var wire  9 9 Minus2B [8:0] $end
     $var wire  9 2 MinusB [8:0] $end
     $var wire  9 . Negative2B [8:0] $end
     $var wire  9 - NegativeB [8:0] $end
     $var wire  9 0 Positive2B [8:0] $end
     $var wire  9 / PositiveB [8:0] $end
     $var wire 18 ; aftershift [17:0] $end
     $var wire  9 : beforeshift [8:0] $end
     $var wire  2 b cal_cnt [1:0] $end
     $var wire  1 c cal_en $end
     $var wire  1 B! cal_en_regNext $end
     $var wire  1 8! clk $end
     $var wire  3 a flag_bits [2:0] $end
     $var wire  8 U io_dinA [7:0] $end
     $var wire  8 A! io_dinB [7:0] $end
     $var wire  1 Y io_din_vld $end
     $var wire 16 P io_dout [15:0] $end
     $var wire  1 =! io_dout_vld $end
     $var wire  1 9! reset $end
     $var wire 18 ` shiftReg [17:0] $end
     $var wire  9 e shiftReg_high [8:0] $end
     $var wire  9 d shiftReg_low [8:0] $end
    $upscope $end
    $scope module booth_sin $end
     $var wire  9 4 Add2B [8:0] $end
     $var wire  9 + AddB [8:0] $end
     $var wire  9 5 Minus2B [8:0] $end
     $var wire  9 , MinusB [8:0] $end
     $var wire  9 ( Negative2B [8:0] $end
     $var wire  9 ' NegativeB [8:0] $end
     $var wire  9 * Positive2B [8:0] $end
     $var wire  9 ) PositiveB [8:0] $end
     $var wire 18 7 aftershift [17:0] $end
     $var wire  9 6 beforeshift [8:0] $end
     $var wire  2 \ cal_cnt [1:0] $end
     $var wire  1 ] cal_en $end
     $var wire  1 @! cal_en_regNext $end
     $var wire  1 8! clk $end
     $var wire  3 [ flag_bits [2:0] $end
     $var wire  8 U io_dinA [7:0] $end
     $var wire  8 ?! io_dinB [7:0] $end
     $var wire  1 Y io_din_vld $end
     $var wire 16 O io_dout [15:0] $end
     $var wire  1 N io_dout_vld $end
     $var wire  1 9! reset $end
     $var wire 18 Z shiftReg [17:0] $end
     $var wire  9 _ shiftReg_high [8:0] $end
     $var wire  9 ^ shiftReg_low [8:0] $end
    $upscope $end
   $upscope $end
  $upscope $end
 $upscope $end
$enddefinitions $end


#0
b11100110 #
b10101000 $
0%
0&
b111110000 '
b111100000 (
b000010000 )
b000100000 *
b000010000 +
b111110000 ,
b110110010 -
b101100100 .
b001001110 /
b010011100 0
b001001110 1
b110110010 2
03
b000100000 4
b111100000 5
b000000000 6
b000000000000000000 7
b010011100 8
b101100100 9
b000000000 :
b000000000000000000 ;
b0000000000 <
b00000000 =
b00000000 >
b00000000 ?
b00000000 @
b00000000 A
b00000000 B
b00000000 C
b00000000 D
b00000000 E
0F
b0000000000000000 G
b0000000000000000 H
0I
0J
b000 K
b00000000 L
b00000000 M
0N
b0000000000000000 O
b0000000000000000 P
b0000000000000000000 Q
b0000000000000000000 R
b0000000000000000000 S
b0000000000000000000 T
b00000000 U
b000 V
0W
0X
0Y
b000000000000000000 Z
b000 [
b00 \
0]
b000000000 ^
b000000000 _
b000000000000000000 `
b000 a
b00 b
0c
b000000000 d
b000000000 e
b0000000000000000000 f
b0000000000000000000 g
b00000000000 h
b0000000000000000000 i
b0000000000000000000 j
b0000000000000000000 k
b0000000000000000000 l
b000 m
0n
0o
1p
0q
b0000000000000000000 r
b0000000000000000000 s
0t
0u
0v
b110 w
b00001011 x
b01000111 y
b00010100 z
b10001110 {
b11101110 |
b01111011 }
b00101100 ~
b10101101 !!
b00010000 "!
b01000001 #!
b10001011 $!
b00110101 %!
b11001100 &!
b01100001 '!
b00100010 (!
b01010011 )!
b01001110 *!
b01010110 +!
b01001111 ,!
b00111101 -!
b11111010 .!
b00110010 /!
b00000101 0!
b00100111 1!
b100 2!
03!
b10101000 4!
b11100110 5!
06!
b0000000000 7!
08!
19!
0:!
b111 ;!
0<!
1=!
0>!
b00010000 ?!
0@!
b01001110 A!
1B!
b0100000 C!
b0010011 D!
b0001010 E!
b0000101 F!
b0000011 G!
b0000001 H!
#80
09!
#85
b000000000 '
b000000000 (
b000000000 )
b000000000 *
b000000000 +
b000000000 ,
b110000001 -
b100000010 .
b001111111 /
b011111110 0
b001111111 1
b110000001 2
b000000000 4
b000000000 5
b011111110 8
b100000010 9
b00000000 x
b00000000 y
b00000000 z
b00000000 {
b00000000 |
b00000000 }
b00000000 ~
b00000000 !!
b00000000 "!
b01100011 #!
b01111100 $!
b00110111 %!
b11001001 &!
b10000100 '!
b10011101 (!
b00000000 )!
b01111111 *!
b01001111 +!
b11100100 ,!
b10001110 -!
b10001110 .!
b11100100 /!
b01001111 0!
b01111111 1!
18!
0=!
b00000000 ?!
b01111111 A!
0B!
#87
08!
#89
18!
#91
08!
#93
18!
#95
08!
#97
18!
#99
08!
#101
18!
#103
08!
#105
18!
#107
08!
#109
18!
#111
08!
#113
18!
#115
08!
#117
18!
#119
08!
#121
18!
#123
08!
#125
18!
#127
08!
#129
18!
#131
08!
#133
18!
#135
08!
#137
18!
#139
08!
#141
18!
#143
08!
#145
18!
#147
08!
#149
18!
#151
08!
#153
18!
#155
08!
#157
18!
#159
08!
#161
18!
#163
08!
#165
18!
#167
08!
#169
18!
#171
08!
#173
18!
#175
08!
#177
18!
#179
08!
#181
18!
#183
08!
#185
18!
#187
08!
#189
18!
#191
08!
#193
18!
#195
08!
#197
18!
#199
08!
#201
18!
#203
08!
#205
18!
#207
08!
#209
18!
#211
08!
#213
18!
#215
08!
#217
18!
#219
08!
#221
18!
#223
08!
#225
18!
#227
08!
#229
18!
#231
08!
#233
18!
#235
08!
#237
18!
#239
08!
#241
18!
#243
08!
#245
18!
#247
08!
#249
18!
#251
08!
#253
18!
#255
08!
#257
18!
#259
08!
#261
18!
#263
08!
#265
18!
#267
08!
#269
18!
#271
08!
#273
18!
#275
08!
#277
18!
#279
08!
#281
18!
#283
08!
#285
b01101110 #
b00101000 $
1u
13!
b00101000 4!
b01101110 5!
18!
#287
08!
#289
b01111111 #
b01011011 $
1%
b01001011 =
b00101000 >
b01101110 ?
b001 K
b01101110 L
b00101000 M
b11011101 U
b01111111 4!
b01011011 5!
18!
#291
08!
#293
b00001010 #
b10110100 $
b01010011 =
b01111111 @
b01011011 A
b010 K
b01111111 L
b11010101 U
b00001010 4!
b10110100 5!
18!
#295
08!
#297
b10001001 #
b10000011 $
0%
1&
b00011001 =
b00001010 B
b10110100 C
b011 K
b10110100 M
b00001111 U
b10000011 4!
b10001001 5!
18!
1<!
#299
08!
#301
0&
b00000000 =
b10000011 D
b10001001 E
1F
b000 K
b10000011 M
b00101000 U
03!
18!
0<!
#303
08!
#305
0F
1W
1Y
18!
#307
08!
#309
b000000000000010100 7
b000000000000010100 ;
b0000000000101000 O
b0000000000101000 P
b0000000000000001010 Q
b0000000000000001010 R
0Y
b000000000001010000 Z
1]
b001010000 ^
b000000000001010000 `
1c
b001010000 d
18!
#311
08!
#313
b000000000000000101 7
b100000010 :
b111000000100000101 ;
b0000000000001010 O
b0000000000001010 P
b0000000000000000010 Q
b0000000000000000010 R
b000000000000010100 Z
b100 [
b01 \
b000010100 ^
b000000000000010100 `
b100 a
b01 b
b000010100 d
18!
1@!
1B!
#315
08!
#317
b000111111 1
b101000001 2
b000000000000000001 7
b010111110 8
b011000010 9
b101000001 :
b111010000011000001 ;
b0000000000000010 O
b1100000010000010 P
b0000000000000000000 Q
b1111111000000100000 R
b000000000000000101 Z
b101 [
b10 \
b000000101 ^
b111000000100000101 `
b101 a
b10 b
b100000101 d
b111000000 e
18!
#319
08!
#321
b001001111 1
b101010001 2
b000000000000000000 7
b011001110 8
b011010010 9
b001001111 :
b000010011110110000 ;
b0000000000000000 O
b1101000001100000 P
b1111111010000011000 R
b000000000000000001 Z
b001 [
b11 \
b000000001 ^
b111010000011000001 `
b001 a
b11 b
b011000001 d
b111010000 e
18!
#323
08!
#325
b010010010 1
b110010100 2
b100010001 8
b100010101 9
b000010011 :
b000000100111101100 ;
1N
b0001001111011000 P
b0000000010011110110 R
1X
b000000000000000000 Z
b000 [
b00 \
0]
b000000000 ^
b000010011110110000 `
b000 a
b00 b
0c
b110110000 d
b000010011 e
18!
1=!
#327
08!
#329
b110011101 '
b100111010 (
b001100011 )
b011000110 *
b001100011 +
b110011101 ,
b110110001 -
b101100010 .
b001001111 /
b010011110 0
b001100010 1
b111000100 2
b011000110 4
b100111010 5
b010110001 8
b101110101 9
b0000010011110110 H
0N
b0000000010011110110 T
b01101110 U
b001 V
0X
1Y
b0000000010011110110 j
b1111111101100001010 l
18!
0=!
b01100011 ?!
0@!
b01001111 A!
0B!
#331
08!
#333
b001001111 1
b110110001 2
b100111010 6
b111001110100110111 7
b010011110 8
b101100010 9
b101100010 :
b111011000100110111 ;
b0000000001101110 O
b0000000001101110 P
b0000000000000011011 Q
b0000000000000011011 R
0Y
b000000000011011100 Z
b100 [
1]
b011011100 ^
b000000000011011100 `
b100 a
1c
b011011100 d
b000000000 e
18!
#335
08!
#337
b000110001 +
b101101011 ,
b000100111 1
b110001001 2
b010010100 4
b100001000 5
b111001110 6
b111110011101001101 7
b001110110 8
b100111010 9
b111011000 :
b111110110001001101 ;
b1100111010011011 O
b1101100010011011 P
b1111111001110100110 Q
b1111111011000100110 R
b111001110100110111 Z
b111 [
b01 \
b100110111 ^
b111001110 _
b111011000100110111 `
b111 a
b01 b
b100110111 d
b111011000 e
18!
1@!
1B!
#339
08!
#341
b001010110 +
b110010000 ,
b001000101 1
b110100111 2
b010111001 4
b100101101 5
b110010000 6
b111100100001010011 7
b010010100 8
b101011000 9
b110100111 :
b111101001110010011 ;
b1111001110100110 O
b1111011000100110 P
b1111111110011101001 Q
b1111111110110001001 R
b111110011101001101 Z
b101 [
b10 \
b101001101 ^
b111110011 _
b111110110001001101 `
b101 a
b10 b
b001001101 d
b111110110 e
18!
#343
08!
#345
b001000111 +
b110000001 ,
b000111000 1
b110011010 2
b010101010 4
b100011110 5
b010101010 6
b000101010100010100 7
b010000111 8
b101001011 9
b010000111 :
b000100001111100100 ;
b1110010000101001 O
b1110100111001001 P
b1111111100100001010 Q
b1111111101001110010 R
b111100100001010011 Z
b011 [
b11 \
b001010011 ^
b111100100 _
b111101001110010011 `
b011 a
b11 b
b110010011 d
b111101001 e
18!
#347
08!
#349
b010001101 +
b111000111 ,
b001110000 1
b111010010 2
b011110000 4
b101100100 5
b101100100 6
b111011001001000101 7
b010111111 8
b110000011 9
b110000011 :
b111100000111111001 ;
1N
b0010101010001010 O
b0010000111110010 P
b0000000101010100010 Q
b0000000100001111100 R
b000101010100010100 Z
b100 [
b00 \
0]
b100010100 ^
b000101010 _
b000100001111100100 `
b100 a
b00 b
0c
b111100100 d
b000100001 e
18!
1=!
#351
08!
#353
b110000100 '
b100001000 (
b001111100 )
b011111000 *
b010100110 +
b110101110 ,
b000011100 -
b000111000 .
b111100100 /
b111001000 0
b000000101 1
b000111101 2
b100100010 4
b100110010 5
b100110010 6
b111001100101000101 7
b111101001 8
b001011001 9
b001011001 :
b000010110011111001 ;
b0000101010100010 G
b0000110101110010 H
0N
b0000000101010100010 S
b0000000110101110010 T
b01111111 U
b010 V
1Y
b0000000101010100010 i
b0000000110101110010 j
b1111111010101011110 k
b1111111001010001110 l
18!
0=!
b01111100 ?!
0@!
b11100100 A!
0B!
#355
08!
#357
b001111100 +
b110000100 ,
b111100100 1
b000011100 2
b011111000 4
b100001000 5
b110000100 6
b111100001000111111 7
b111001000 8
b000111000 9
b000011100 :
b000000111000111111 ;
b0000000001111111 O
b0000000001111111 P
b0000000000000011111 Q
b0000000000000011111 R
0Y
b000000000011111110 Z
b110 [
1]
b011111110 ^
b000000000 _
b000000000011111110 `
b110 a
1c
b011111110 d
b000000000 e
18!
#359
08!
#361
b001011101 +
b101100101 ,
b111101011 1
b000100011 2
b011011001 4
b011101001 5
b111100001 6
b111111000010001111 7
b111001111 8
b000111111 9
b000000111 :
b000000001110001111 ;
b1110000100011111 O
b0000011100011111 P
b1111111100001000111 Q
b0000000000111000111 R
b111100001000111111 Z
b111 [
b01 \
b000111111 ^
b111100001 _
b000000111000111111 `
b111 a
b01 b
b000111111 d
b000000111 e
18!
1@!
1B!
#363
08!
#365
b001110100 +
b101111100 ,
b111100101 1
b000011101 2
b011110000 4
b100000000 5
b111111000 6
b111111110000100011 7
b111001001 8
b000111001 9
b000000001 :
b000000000011100011 ;
b1111100001000111 O
b0000000111000111 P
b1111111111000010001 Q
b0000000000001110001 R
b111111000010001111 Z
b10 \
b010001111 ^
b111111000 _
b000000001110001111 `
b10 b
b110001111 d
b000000001 e
18!
#367
08!
#369
b001111010 +
b110000010 ,
b111100100 1
b000011100 2
b011110110 4
b100000110 5
b011110110 6
b000111101100001000 7
b111001000 8
b000111000 9
b111001000 :
b111110010000111000 ;
b1111111000010001 O
b0000000001110001 P
b1111111111110000100 Q
b0000000000000011100 R
b111111110000100011 Z
b011 [
b11 \
b000100011 ^
b111111110 _
b000000000011100011 `
b011 a
b11 b
b011100011 d
b000000000 e
18!
#371
08!
#373
b010111001 +
b111000001 ,
b111010110 1
b000001110 2
b100110101 4
b101000101 5
b000111101 6
b000001111011000010 7
b110111010 8
b000101010 9
b111110010 :
b111111100100001110 ;
1N
b0011110110000100 O
b1111001000011100 P
b0000000111101100001 Q
b1111111110010000111 R
b000111101100001000 Z
b000 [
b00 \
0]
b100001000 ^
b000111101 _
b111110010000111000 `
b000 a
b00 b
0c
b000111000 d
b111110010 e
18!
1=!
#375
08!
#377
b111001001 '
b110010010 (
b000110111 )
b001101110 *
b001110100 +
b000000110 ,
b001110010 -
b011100100 .
b110001110 /
b100011100 0
b110000000 1
b001100100 2
b010101011 4
b111001111 5
b100001110 8
b011010110 9
b0001101000000011 G
b0000100111111001 H
0N
b0000001101000000011 S
b0000000100111111001 T
b01011011 U
b011 V
1Y
b0000001101000000011 i
b0000000100111111001 j
b1111110010111111101 k
b1111111011000000111 l
18!
0=!
b00110111 ?!
0@!
b10001110 A!
0B!
#379
08!
#381
b000110111 +
b111001001 ,
b110001110 1
b001110010 2
b001101110 4
b110010010 5
b111001001 6
b111110010010101101 7
b100011100 8
b011100100 9
b001110010 :
b000011100100101101 ;
b0000000001011011 O
b0000000001011011 P
b0000000000000010110 Q
b0000000000000010110 R
0Y
b000000000010110110 Z
b110 [
1]
b010110110 ^
b000000000 _
b000000000010110110 `
b110 a
1c
b010110110 d
b000000000 e
18!
#383
08!
#385
b000101001 +
b110111011 ,
b110101010 1
b010001110 2
b001100000 4
b110000100 5
b110111011 6
b111101110110101011 7
b100111000 8
b100000000 9
b010001110 :
b000100011101001011 ;
b1111001001010110 O
b0001110010010110 P
b1111111110010010101 Q
b0000000011100100101 R
b111110010010101101 Z
b101 [
b01 \
b010101101 ^
b111110010 _
b000011100100101101 `
b101 a
b01 b
b100101101 d
b000011100 e
18!
1@!
1B!
#387
08!
#389
b000100101 +
b110110111 ,
b110110001 1
b010010101 2
b001011100 4
b110000000 5
b001011100 6
b000010111001101010 7
b100111111 8
b100000111 9
b100111111 :
b111001111111010010 ;
b1110111011010101 O
b0010001110100101 P
b1111111101110110101 Q
b0000000100011101001 R
b111101110110101011 Z
b011 [
b10 \
b110101011 ^
b111101110 _
b000100011101001011 `
b011 a
b10 b
b101001011 d
b000100011 e
18!
#391
08!
#393
b001001110 +
b111100000 ,
b101011101 1
b001000001 2
b010000101 4
b110101001 5
b001001110 6
b000010011100011010 7
b011101011 8
b010110011 9
b101011101 :
b111010111011110100 ;
b0001011100110101 O
b1100111111101001 P
b0000000010111001101 Q
b1111111001111111010 R
b000010111001101010 Z
b010 [
b11 \
b001101010 ^
b000010111 _
b111001111111010010 `
b010 a
b11 b
b111010010 d
b111001111 e
18!
#395
08!
#397
b001001010 +
b111011100 ,
b101100101 1
b001001001 2
b010000001 4
b110100101 5
b001001010 6
b000010010101000110 7
b011110011 8
b010111011 9
b010111011 :
b000101110110111101 ;
1N
b0001001110001101 O
b1101011101111010 P
b0000000010011100011 Q
b1111111010111011110 R
b000010011100011010 Z
b00 \
0]
b100011010 ^
b000010011 _
b111010111011110100 `
b100 a
b00 b
0c
b011110100 d
b111010111 e
18!
1=!
#399
08!
#401
b000110111 '
b001101110 (
b111001001 )
b110010010 *
b111011100 +
b001001010 ,
b110100101 4
b010000001 5
b111011100 6
b111110111001000110 7
b0001111011100110 G
b1111111111010111 H
0N
b0000001111011100110 S
b1111111111111010111 T
b00001010 U
b100 V
1Y
b0000001111011100110 i
b1111111111111010111 j
b1111110000100011010 k
b0000000000000101001 l
18!
0=!
b11001001 ?!
0@!
0B!
#403
08!
#405
b111001001 +
b000110111 ,
b110001110 1
b001110010 2
b110010010 4
b001101110 5
b001101110 6
b000011011100000101 7
b100011100 8
b011100100 9
b011100100 :
b000111001000000101 ;
b0000000000001010 O
b0000000000001010 P
b0000000000000000010 Q
b0000000000000000010 R
0Y
b000000000000010100 Z
b100 [
1]
b000010100 ^
b000000000 _
b000000000000010100 `
1c
b000010100 d
b000000000 e
18!
#407
08!
#409
b111100100 +
b001010010 ,
b111000111 1
b010101011 2
b110101101 4
b010001001 5
b001010010 6
b000010100101000001 7
b101010101 8
b100011101 9
b010101011 :
b000101010110000001 ;
b0001101110000010 O
b0011100100000010 P
b0000000011011100000 Q
b0000000111001000000 R
b000011011100000101 Z
b101 [
b01 \
b100000101 ^
b000011011 _
b000111001000000101 `
b101 a
b01 b
b000000101 d
b000111001 e
18!
1@!
1B!
#411
08!
#413
b111011101 +
b001001011 ,
b110111000 1
b010011100 2
b110100110 4
b010000010 5
b111011101 6
b111110111011010000 7
b101000110 8
b100001110 9
b110111000 :
b111101110001100000 ;
b0001010010100000 O
b0010101011000000 P
b0000000010100101000 Q
b0000000101010110000 R
b000010100101000001 Z
b001 [
b10 \
b101000001 ^
b000010100 _
b000101010110000001 `
b001 a
b10 b
b110000001 d
b000101010 e
18!
#415
08!
#417
b111000000 +
b000101110 ,
b101111100 1
b001100000 2
b110001001 4
b001100101 5
b111110111 6
b111111101110110100 7
b100001010 8
b011010010 9
b111101110 :
b111111011100011000 ;
b1111011101101000 O
b1110111000110000 P
b1111111110111011010 Q
b1111111101110001100 R
b111110111011010000 Z
b000 [
b11 \
b011010000 ^
b111110111 _
b111101110001100000 `
b000 a
b11 b
b001100000 d
b111101110 e
18!
#419
08!
#421
b111000110 +
b000110100 ,
b110001001 1
b001101101 2
b110001111 4
b001101011 5
b001101011 6
b000011010111101101 7
b100010111 8
b011011111 9
b111111011 :
b111111110111000110 ;
1N
b1111110111011010 O
b1111101110001100 P
b1111111111101110110 Q
b1111111111011100011 R
b111111101110110100 Z
b100 [
b00 \
0]
b110110100 ^
b111111101 _
b111111011100011000 `
b00 b
0c
b100011000 d
b111111011 e
18!
1=!
#423
08!
