cal_phase/simWorkspace/cal_phase/test.vcd
$version Generated by VerilatedVcd $end
$date Sat Dec  4 21:22:11 2021
 $end
$timescale   1ps $end

 $scope module TOP $end
  $var wire  1 p clk $end
  $var wire  1 d en $end
  $var wire 10 o res [9:0] $end
  $var wire  1 n res_vld $end
  $var wire  1 q reset $end
  $var wire  8 f v_in_0 [7:0] $end
  $var wire  8 g v_in_1 [7:0] $end
  $var wire  8 h v_in_2 [7:0] $end
  $var wire  8 i v_in_3 [7:0] $end
  $var wire  8 j v_in_4 [7:0] $end
  $var wire  8 k v_in_5 [7:0] $end
  $var wire  8 l v_in_6 [7:0] $end
  $var wire  8 m v_in_7 [7:0] $end
  $var wire  1 e vin_vld $end
  $scope module cal_phase $end
   $var wire  1 . AbsGtPi $end
   $var wire  1 ) LastA2stZero $end
   $var wire  8 A calvn_vn_0 [7:0] $end
   $var wire  8 B calvn_vn_1 [7:0] $end
   $var wire  8 C calvn_vn_2 [7:0] $end
   $var wire  8 D calvn_vn_3 [7:0] $end
   $var wire  8 E calvn_vn_4 [7:0] $end
   $var wire  8 F calvn_vn_5 [7:0] $end
   $var wire  8 G calvn_vn_6 [7:0] $end
   $var wire  8 H calvn_vn_7 [7:0] $end
   $var wire  1 I calvn_vn_vld $end
   $var wire  1 p clk $end
   $var wire  8 ' cordic_res [7:0] $end
   $var wire  1 ( cordic_res_vld $end
   $var wire 16 % dot_psum_out1 [15:0] $end
   $var wire 16 & dot_psum_out2 [15:0] $end
   $var wire  1 r dot_psum_vld $end
   $var wire  1 d en $end
   $var wire  8 ' ph_cal [7:0] $end
   $var wire  9 , ph_delta [8:0] $end
   $var wire  9 - ph_delta_abs [8:0] $end
   $var wire  8 + ph_last [7:0] $end
   $var wire  8 * ph_now [7:0] $end
   $var wire  1 s ph_vld $end
   $var wire  1 t ph_vld_dly1 $end
   $var wire 16 % psum_out1 [15:0] $end
   $var wire 16 & psum_out2 [15:0] $end
   $var wire  1 r psum_vld $end
   $var wire 10 $ res [9:0] $end
   $var wire 10 $ res_last [9:0] $end
   $var wire  1 # res_last_vld $end
   $var wire  1 # res_vld $end
   $var wire  1 q reset $end
   $var wire  8 f v_in_0 [7:0] $end
   $var wire  8 g v_in_1 [7:0] $end
   $var wire  8 h v_in_2 [7:0] $end
   $var wire  8 i v_in_3 [7:0] $end
   $var wire  8 j v_in_4 [7:0] $end
   $var wire  8 k v_in_5 [7:0] $end
   $var wire  8 l v_in_6 [7:0] $end
   $var wire  8 m v_in_7 [7:0] $end
   $var wire  1 e vin_vld $end
   $var wire  8 A vn_0 [7:0] $end
   $var wire  8 B vn_1 [7:0] $end
   $var wire  8 C vn_2 [7:0] $end
   $var wire  8 D vn_3 [7:0] $end
   $var wire  8 E vn_4 [7:0] $end
   $var wire  8 F vn_5 [7:0] $end
   $var wire  8 G vn_6 [7:0] $end
   $var wire  8 H vn_7 [7:0] $end
   $var wire  1 I vn_vld $end
   $scope module calvn $end
    $var wire  8 u FloorWrapVn_0_dout [7:0] $end
    $var wire  8 v FloorWrapVn_1_dout [7:0] $end
    $var wire  8 w FloorWrapVn_2_dout [7:0] $end
    $var wire  8 x FloorWrapVn_3_dout [7:0] $end
    $var wire  8 y FloorWrapVn_4_dout [7:0] $end
    $var wire  8 z FloorWrapVn_5_dout [7:0] $end
    $var wire  8 { FloorWrapVn_6_dout [7:0] $end
    $var wire  8 | FloorWrapVn_7_dout [7:0] $end
    $var wire 11 } SumXin [10:0] $end
    $var wire 11 K SumXinReg [10:0] $end
    $var wire 12 (! VinMinusMean_0 [11:0] $end
    $var wire 12 )! VinMinusMean_1 [11:0] $end
    $var wire 12 *! VinMinusMean_2 [11:0] $end
    $var wire 12 +! VinMinusMean_3 [11:0] $end
    $var wire 12 ,! VinMinusMean_4 [11:0] $end
    $var wire 12 -! VinMinusMean_5 [11:0] $end
    $var wire 12 .! VinMinusMean_6 [11:0] $end
    $var wire 12 /! VinMinusMean_7 [11:0] $end
    $var wire  8 A VnReg_0 [7:0] $end
    $var wire  8 B VnReg_1 [7:0] $end
    $var wire  8 C VnReg_2 [7:0] $end
    $var wire  8 D VnReg_3 [7:0] $end
    $var wire  8 E VnReg_4 [7:0] $end
    $var wire  8 F VnReg_5 [7:0] $end
    $var wire  8 G VnReg_6 [7:0] $end
    $var wire  8 H VnReg_7 [7:0] $end
    $var wire  8 u Vn_floor_0 [7:0] $end
    $var wire  8 v Vn_floor_1 [7:0] $end
    $var wire  8 w Vn_floor_2 [7:0] $end
    $var wire  8 x Vn_floor_3 [7:0] $end
    $var wire  8 y Vn_floor_4 [7:0] $end
    $var wire  8 z Vn_floor_5 [7:0] $end
    $var wire  8 { Vn_floor_6 [7:0] $end
    $var wire  8 | Vn_floor_7 [7:0] $end
    $var wire  1 p clk $end
    $var wire  1 d en $end
    $var wire  1 J in_vld_dly1 $end
    $var wire  1 I in_vld_dly2 $end
    $var wire  1 q reset $end
    $var wire  8 f v_in_0 [7:0] $end
    $var wire  8 g v_in_1 [7:0] $end
    $var wire  8 h v_in_2 [7:0] $end
    $var wire  8 i v_in_3 [7:0] $end
    $var wire  8 j v_in_4 [7:0] $end
    $var wire  8 k v_in_5 [7:0] $end
    $var wire  8 l v_in_6 [7:0] $end
    $var wire  8 m v_in_7 [7:0] $end
    $var wire 11 ~ vin_ext_0 [10:0] $end
    $var wire 11 !! vin_ext_1 [10:0] $end
    $var wire 11 "! vin_ext_2 [10:0] $end
    $var wire 11 #! vin_ext_3 [10:0] $end
    $var wire 11 $! vin_ext_4 [10:0] $end
    $var wire 11 %! vin_ext_5 [10:0] $end
    $var wire 11 &! vin_ext_6 [10:0] $end
    $var wire 11 '! vin_ext_7 [10:0] $end
    $var wire  1 e vin_vld $end
    $var wire  8 A vn_0 [7:0] $end
    $var wire  8 B vn_1 [7:0] $end
    $var wire  8 C vn_2 [7:0] $end
    $var wire  8 D vn_3 [7:0] $end
    $var wire  8 E vn_4 [7:0] $end
    $var wire  8 F vn_5 [7:0] $end
    $var wire  8 G vn_6 [7:0] $end
    $var wire  8 H vn_7 [7:0] $end
    $var wire  1 I vn_vld $end
    $scope module FloorWrapVn_0 $end
     $var wire  8 u dataOut [7:0] $end
     $var wire 12 (! din [11:0] $end
     $var wire  8 u dout [7:0] $end
    $upscope $end
    $scope module FloorWrapVn_1 $end
     $var wire  8 v dataOut [7:0] $end
     $var wire 12 )! din [11:0] $end
     $var wire  8 v dout [7:0] $end
    $upscope $end
    $scope module FloorWrapVn_2 $end
     $var wire  8 w dataOut [7:0] $end
     $var wire 12 *! din [11:0] $end
     $var wire  8 w dout [7:0] $end
    $upscope $end
    $scope module FloorWrapVn_3 $end
     $var wire  8 x dataOut [7:0] $end
     $var wire 12 +! din [11:0] $end
     $var wire  8 x dout [7:0] $end
    $upscope $end
    $scope module FloorWrapVn_4 $end
     $var wire  8 y dataOut [7:0] $end
     $var wire 12 ,! din [11:0] $end
     $var wire  8 y dout [7:0] $end
    $upscope $end
    $scope module FloorWrapVn_5 $end
     $var wire  8 z dataOut [7:0] $end
     $var wire 12 -! din [11:0] $end
     $var wire  8 z dout [7:0] $end
    $upscope $end
    $scope module FloorWrapVn_6 $end
     $var wire  8 { dataOut [7:0] $end
     $var wire 12 .! din [11:0] $end
     $var wire  8 { dout [7:0] $end
    $upscope $end
    $scope module FloorWrapVn_7 $end
     $var wire  8 | dataOut [7:0] $end
     $var wire 12 /! din [11:0] $end
     $var wire  8 | dout [7:0] $end
    $upscope $end
   $upscope $end
   $scope module cordic $end
    $var wire  3 9 cal_cnt [2:0] $end
    $var wire  1 : cal_en $end
    $var wire  1 < cal_finish $end
    $var wire  1 ; cal_start $end
    $var wire  1 p clk $end
    $var wire  1 d en $end
    $var wire  1 ( finish $end
    $var wire  1 = nozero_flg $end
    $var wire  8 ' res [7:0] $end
    $var wire  8 @ res_bias [7:0] $end
    $var wire  8 ' res_rg [7:0] $end
    $var wire  1 ( res_vld $end
    $var wire  1 q reset $end
    $var wire  1 r vld $end
    $var wire 16 % x [15:0] $end
    $var wire 22 5 x_ext [21:0] $end
    $var wire 22 7 x_ins [21:0] $end
    $var wire 22 3 xn [21:0] $end
    $var wire 22 > xn_rightshift [21:0] $end
    $var wire 16 & y [15:0] $end
    $var wire 22 6 y_ext [21:0] $end
    $var wire 22 8 y_ins [21:0] $end
    $var wire 22 4 yn [21:0] $end
    $var wire 22 ? yn_rightshift [21:0] $end
   $upscope $end
   $scope module dot $end
    $var wire 16 % FloorWrapPsum1_dout [15:0] $end
    $var wire 16 & FloorWrapPsum2_dout [15:0] $end
    $var wire  1 p clk $end
    $var wire  1 d en $end
    $var wire  1 r finish $end
    $var wire  3 N mac_cnt [2:0] $end
    $var wire  1 O mac_en $end
    $var wire  1 Q mac_finish $end
    $var wire  1 P mac_start $end
    $var wire 19 / psum1 [18:0] $end
    $var wire 19 0 psum2 [18:0] $end
    $var wire 16 % psum_out1 [15:0] $end
    $var wire 16 & psum_out2 [15:0] $end
    $var wire  1 r psum_vld $end
    $var wire  1 q reset $end
    $var wire 19 L s1 [18:0] $end
    $var wire 19 M s2 [18:0] $end
    $var wire 19 L table_1_s1 [18:0] $end
    $var wire 19 M table_1_s2 [18:0] $end
    $var wire  8 A vn_in_0 [7:0] $end
    $var wire  8 B vn_in_1 [7:0] $end
    $var wire  8 C vn_in_2 [7:0] $end
    $var wire  8 D vn_in_3 [7:0] $end
    $var wire  8 E vn_in_4 [7:0] $end
    $var wire  8 F vn_in_5 [7:0] $end
    $var wire  8 G vn_in_6 [7:0] $end
    $var wire  8 H vn_in_7 [7:0] $end
    $var wire  1 I vn_vld $end
    $scope module FloorWrapPsum1 $end
     $var wire 16 % dataOut [15:0] $end
     $var wire 17 1 din [16:0] $end
     $var wire 16 % dout [15:0] $end
    $upscope $end
    $scope module FloorWrapPsum2 $end
     $var wire 16 & dataOut [15:0] $end
     $var wire 17 2 din [16:0] $end
     $var wire 16 & dout [15:0] $end
    $upscope $end
    $scope module table_1 $end
     $var wire 19 \ Coef12 [18:0] $end
     $var wire 19 ^ Coef127 [18:0] $end
     $var wire 19 _ Coef81 [18:0] $end
     $var wire 19 ] Coef99 [18:0] $end
     $var wire 19 a Coefm100 [18:0] $end
     $var wire 19 b Coefm128 [18:0] $end
     $var wire 19 ` Coefm13 [18:0] $end
     $var wire 19 c Coefm82 [18:0] $end
     $var wire 19 0! S_table_0 [18:0] $end
     $var wire 19 1! S_table_1 [18:0] $end
     $var wire 19 2! S_table_2 [18:0] $end
     $var wire 19 3! S_table_3 [18:0] $end
     $var wire 19 4! S_table_4 [18:0] $end
     $var wire 19 5! S_table_5 [18:0] $end
     $var wire 19 6! S_table_6 [18:0] $end
     $var wire 19 7! S_table_7 [18:0] $end
     $var wire  8 R din [7:0] $end
     $var wire  1 Z din_msb $end
     $var wire  3 N index [2:0] $end
     $var wire 16 Y m1 [15:0] $end
     $var wire 16 S m128 [15:0] $end
     $var wire 16 U m16 [15:0] $end
     $var wire 16 X m2 [15:0] $end
     $var wire 16 T m32 [15:0] $end
     $var wire 16 W m4 [15:0] $end
     $var wire 16 V m8 [15:0] $end
     $var wire 19 L s1 [18:0] $end
     $var wire 19 M s2 [18:0] $end
     $var wire 18 [ tmp1 [17:0] $end
    $upscope $end
   $upscope $end
  $upscope $end
 $upscope $end
$enddefinitions $end


#0
0#
b0000000000 $
b0000000000000000 %
b0000000000000000 &
b00000000 '
0(
0)
b00000000 *
b00000000 +
b000000000 ,
b000000000 -
0.
b0000000000000000000 /
b0000000000000000000 0
b00000000000000000 1
b00000000000000000 2
b0000000000000000000000 3
b0000000000000000000000 4
b0000000000000000000000 5
b0000000000000000000000 6
b0000000000000000000000 7
b0000000000000000000000 8
b000 9
0:
1;
0<
1=
b0000000000000000000000 >
b0000000000000000000000 ?
b00100000 @
b00000000 A
b00000000 B
b00000000 C
b00000000 D
b00000000 E
b00000000 F
b00000000 G
b00000000 H
0I
0J
b00000000000 K
b0000000000000000000 L
b0000000000000000000 M
b000 N
0O
1P
0Q
b00000000 R
b0000000000000000 S
b0000000000000000 T
b0000000000000000 U
b0000000000000000 V
b0000000000000000 W
b0000000000000000 X
b0000000000000000 Y
0Z
b000000000000000000 [
b0000000000000000000 \
b0000000000000000000 ]
b0000000000000000000 ^
b0000000000000000000 _
b0000000000000000000 `
b0000000000000000000 a
b0000000000000000000 b
b0000000000000000000 c
0d
0e
b11111111 f
b11110010 g
b10010100 h
b10110011 i
b10001001 j
b00101000 k
b11011001 l
b11010110 m
0n
b0000000000 o
0p
1q
0r
0s
0t
b11111111 u
b11110010 v
b10010100 w
b10110011 x
b10001001 y
b00101000 z
b11011001 {
b11010110 |
b11010011000 }
b11111111000 ~
b11110010000 !!
b10010100000 "!
b10110011000 #!
b10001001000 $!
b00101000000 %!
b11011001000 &!
b11010110000 '!
b111111111000 (!
b111110010000 )!
b110010100000 *!
b110110011000 +!
b110001001000 ,!
b000101000000 -!
b111011001000 .!
b111010110000 /!
b0010011111110101001 0!
b0001110111001100011 1!
b1110100100101111001 2!
b0110100001101110100 3!
b1101100100011001111 4!
b0001111110100010001 5!
b0010001010000100000 6!
b0001010111010111011 7!
#80
0q
#85
1p
#87
0p
#89
1p
#91
0p
#93
1p
#95
0p
#97
1p
#99
0p
#100
#101
1p
#103
0p
#105
1p
#107
0p
#109
1p
#111
0p
#113
1p
#115
0p
#117
1p
#119
0p
#121
1p
#123
0p
#125
1p
#127
0p
#129
1p
#131
0p
#133
1p
#135
0p
#137
1p
#139
0p
#141
1p
#143
0p
#145
1p
#147
0p
#149
1p
#151
0p
#153
1p
#155
0p
#157
1p
#159
0p
#161
1p
#163
0p
#165
1p
#167
0p
#169
1p
#171
0p
#173
1p
#175
0p
#177
1p
#179
0p
#181
1p
#183
0p
#185
1p
#187
0p
#189
1p
#191
0p
#193
1p
#195
0p
#197
1p
#199
0p
#201
1d
1e
b01100101 f
b01001000 g
b00000000 h
b10111000 i
b10011011 j
b10111000 k
b00000000 l
b01001000 m
1p
b01100101 u
b01001000 v
b00000000 w
b10111000 x
b10011011 y
b10111000 z
b00000000 {
b01001000 |
b00000000000 }
b01100101000 ~
b01001000000 !!
b00000000000 "!
b10111000000 #!
b10011011000 $!
b10111000000 %!
b00000000000 &!
b01001000000 '!
b001100101000 (!
b001001000000 )!
b000000000000 *!
b110111000000 +!
b110011011000 ,!
b110111000000 -!
b000000000000 .!
b001001000000 /!
#203
0p
#205
1J
0e
1p
#207
0p
#209
b01100101 A
b01001000 B
b10111000 D
b10011011 E
b10111000 F
b01001000 H
1I
0J
b0000000100101111000 L
b0000110010000110110 M
b01100101 R
b0000000011001010 S
b0000001100101000 T
b0000011001010000 U
b0000110010100000 V
b0001100101000000 W
b0011001010000000 X
b0110010100000000 Y
b000100111011101000 [
b0000000100101111000 \
b0000100111000011110 ]
b0000110010000110110 ^
b0000011111111101010 _
b1111111010110111110 `
b1111011000100011000 a
b1111001101100000000 b
b1111011111101001100 c
1p
#211
0p
#213
0I
1O
1p
#215
0p
#217
b0000001001011110 %
b0001100100001101 &
b0000000100101111000 /
b0000110010000110110 0
b00000001001011110 1
b00001100100001101 2
b0000000010010111100000 5
b0000011001000011010000 6
b1111111101101000100000 7
b1111100110111100110000 8
b0000011011110110000 L
b0000010110110010000 M
b001 N
0P
b01001000 R
b0000000010010000 S
b0000001001000000 T
b0000010010000000 U
b0000100100000000 V
b0001001000000000 W
b0010010000000000 X
b0100100000000000 Y
b000011100001000000 [
b0000000011011000000 \
b0000011011110110000 ]
b0000100011101110000 ^
b0000010110110010000 _
b1111111100010110000 `
b1111100011111000000 a
b1111011100000000000 b
b1111101000111100000 c
1p
#219
0p
#221
b0001000001001010 %
b0010010001110001 &
b0000100000100101000 /
b0001001000111000110 0
b00001000001001010 1
b00010010001110001 2
b0000010000010010100000 5
b0000100100011100010000 6
b1111101111101101100000 7
b1111011011100011110000 8
b0000000000000000000 L
b0000000000000000000 M
b010 N
b00000000 R
b0000000000000000 S
b0000000000000000 T
b0000000000000000 U
b0000000000000000 V
b0000000000000000 W
b0000000000000000 X
b0000000000000000 Y
b000000000000000000 [
b0000000000000000000 \
b0000000000000000000 ]
b0000000000000000000 ^
b0000000000000000000 _
b0000000000000000000 `
b0000000000000000000 a
b0000000000000000000 b
b0000000000000000000 c
1p
#223
0p
#225
b1111101001001110000 L
b0000011100001000000 M
b011 N
b10111000 R
b1111111101110000 S
b1111110111000000 T
b1111101110000000 U
b1111011100000000 V
b1110111000000000 W
b1101110000000000 X
b1011100000000000 Y
1Z
b111100011111000000 [
b1111111100101000000 \
b1111100100001010000 ]
b1111011100010010000 ^
b1111101001001110000 _
b0000000011101010000 `
b0000011100001000000 a
b0000100100000000000 b
b0000010111000100000 c
1p
#227
0p
#229
b0000010011100110 %
b0011001010000001 &
b0000001001110011000 /
b0001100101000000110 0
b00000010011100110 1
b00011001010000001 2
b0000000100111001100000 5
b0000110010100000010000 6
b1111111011000110100000 7
b1111001101011111110000 8
b0000000101001000010 L
b0000110010100000000 M
b100 N
b10011011 R
b1111111100110110 S
b1111110011011000 T
b1111100110110000 U
b1111001101100000 V
b1110011011000000 W
b1100110110000000 X
b1001101100000000 Y
b111011000100011000 [
b1111111011010001000 \
b1111011000111100010 ]
b1111001101111001010 ^
b1111100000000010110 _
b0000000101001000010 `
b0000100111011101000 a
b0000110010100000000 b
b0000100000010110100 c
1p
#231
0p
#233
b0000011101110110 %
b0100101111000001 &
b0000001110111011010 /
b0010010111100000110 0
b00000011101110110 1
b00100101111000001 2
b0000000111011101100000 5
b0001001011110000010000 6
b1111111000100010100000 7
b1110110100001111110000 8
b0000011100001000000 L
b0000010111000100000 M
b101 N
b10111000 R
b1111111101110000 S
b1111110111000000 T
b1111101110000000 U
b1111011100000000 V
b1110111000000000 W
b1101110000000000 X
b1011100000000000 Y
b111100011111000000 [
b1111111100101000000 \
b1111100100001010000 ]
b1111011100010010000 ^
b1111101001001110000 _
b0000000011101010000 `
b0000011100001000000 a
b0000100100000000000 b
b0000010111000100000 c
1p
#235
0p
#237
b0001010110000110 %
b0101011101001001 &
b0000101011000011010 /
b0010101110100100110 0
b00001010110000110 1
b00101011101001001 2
b0000010101100001100000 5
b0001010111010010010000 6
b1111101010011110100000 7
b1110101000101101110000 8
b0000000000000000000 L
b0000000000000000000 M
b110 N
b00000000 R
b0000000000000000 S
b0000000000000000 T
b0000000000000000 U
b0000000000000000 V
b0000000000000000 W
b0000000000000000 X
b0000000000000000 Y
0Z
b000000000000000000 [
b0000000000000000000 \
b0000000000000000000 ]
b0000000000000000000 ^
b0000000000000000000 _
b0000000000000000000 `
b0000000000000000000 a
b0000000000000000000 b
b0000000000000000000 c
1p
#239
0p
#241
b1111101000111100000 L
b0000011011110110000 M
b111 N
1Q
b01001000 R
b0000000010010000 S
b0000001001000000 T
b0000010010000000 U
b0000100100000000 V
b0001001000000000 W
b0010010000000000 X
b0100100000000000 Y
b000011100001000000 [
b0000000011011000000 \
b0000011011110110000 ]
b0000100011101110000 ^
b0000010110110010000 _
b1111111100010110000 `
b1111100011111000000 a
b1111011100000000000 b
b1111101000111100000 c
1p
#243
0p
#245
b0000100111111110 %
b0110010100110101 &
b0000010011111111010 /
b0011001010011010110 0
b00000100111111110 1
b00110010100110101 2
b0000001001111111100000 5
b0001100101001101010000 6
b1111110110000000100000 7
b1110011010110010110000 8
b0000000100101111000 L
b0000110010000110110 M
b000 N
0O
1P
0Q
b01100101 R
b0000000011001010 S
b0000001100101000 T
b0000011001010000 U
b0000110010100000 V
b0001100101000000 W
b0011001010000000 X
b0110010100000000 Y
b000100111011101000 [
b0000000100101111000 \
b0000100111000011110 ]
b0000110010000110110 ^
b0000011111111101010 _
b1111111010110111110 `
b1111011000100011000 a
b1111001101100000000 b
b1111011111101001100 c
1p
1r
#247
0p
#249
1:
1p
0r
#251
0p
#253
b0000001001111111100000 3
b0001100101001101010000 4
b001 9
0;
b0000001001111111100000 >
b0001100101001101010000 ?
b00010000 @
1p
#255
0p
#257
b00010000 '
b0001101111001100110000 3
b0001011011001101110000 4
b010 9
b0000110111100110011000 >
b0000101101100110111000 ?
b00001000 @
1p
#259
0p
#261
b00011000 '
b0010011100110011101000 3
b0000100011100111011000 4
b011 9
b0000100111001100111010 >
b0000001000111001110110 ?
b00000100 @
1p
#263
0p
#265
b00011100 '
b0010100101101101011110 3
b1111111100011010011110 4
b100 9
b0000010100101101101011 >
b1111111111100011010011 ?
b00000010 @
1p
#267
0p
#269
b00011010 '
b0010100110001010001011 3
b0000010001001000001001 4
b101 9
1<
b0000001010011000101000 >
b0000000001000100100000 ?
b00000001 @
1p
#271
0p
#273
b00011011 '
1(
b0010100111001110101011 3
b0000000110101111100001 4
b110 9
0:
0<
b0000000101001110011101 >
b0000000000001101011111 ?
b10000000 @
1p
1s
#275
0p
#277
0(
b00011011 *
b000011011 ,
b000011011 -
b000 9
1;
b0000000001010011100111 >
b0000000000000011010111 ?
b00100000 @
1e
b01100001 f
b00101111 g
b11100010 h
b10100110 i
b10011111 j
b11010001 k
b00011110 l
b01011010 m
1p
0s
1t
b01100001 u
b00101111 v
b11100010 w
b10100110 x
b10011111 y
b11010001 z
b00011110 {
b01011010 |
b01100001000 ~
b00101111000 !!
b11100010000 "!
b10100110000 #!
b10011111000 $!
b11010001000 %!
b00011110000 &!
b01011010000 '!
b001100001000 (!
b000101111000 )!
b111100010000 *!
b110100110000 +!
b110011111000 ,!
b111010001000 -!
b000011110000 .!
b001011010000 /!
#279
0p
#281
1#
b0000011011 $
1J
0e
1n
b0000011011 o
1p
0t
#283
0p
#285
0#
b01100001 A
b00101111 B
b11100010 C
b10100110 D
b10011111 E
b11010001 F
b00011110 G
b01011010 H
1I
0J
b0000000100100011000 L
b0000110000000111110 M
b01100001 R
b0000000011000010 S
b0000001100001000 T
b0000011000010000 U
b0000110000100000 V
b0001100001000000 W
b0011000010000000 X
b0110000100000000 Y
b000100101111001000 [
b0000000100100011000 \
b0000100101100000110 ]
b0000110000000111110 ^
b0000011110101100010 _
b1111111011000100110 `
b1111011010000111000 a
b1111001111100000000 b
b1111100000111011100 c
0n
1p
#287
0p
#289
0I
1O
1p
#291
0p
#293
b0000001001000110 %
b0001100000001111 &
b0000000100100011000 /
b0000110000000111110 0
b00000001001000110 1
b00001100000001111 2
b0000000010010001100000 5
b0000011000000011110000 6
b1111111101101110100000 7
b1111100111111100010000 8
b0000010010001011010 L
b0000001110110111110 M
b001 N
0P
b00101111 R
b0000000001011110 S
b0000000101111000 T
b0000001011110000 U
b0000010111100000 V
b0000101111000000 W
b0001011110000000 X
b0010111100000000 Y
b000010010010111000 [
b0000000010001101000 \
b0000010010001011010 ]
b0000010111010100010 ^
b0000001110110111110 _
b1111111101100111010 `
b1111101101101001000 a
b1111101000100000000 b
b1111110000111100100 c
1p
#295
0p
#297
b0000101101011100 %
b0001111101111111 &
b0000010110101110010 /
b0000111110111111100 0
b00000101101011100 1
b00001111101111111 2
b0000001011010111000000 5
b0000011111011111110000 6
b1111110100101001000000 7
b1111100000100000010000 8
b1111110001000111100 L
b0000000001100001100 M
b010 N
b11100010 R
b1111111111000100 S
b1111111100010000 T
b1111111000100000 U
b1111110001000000 V
b1111100010000000 W
b1111000100000000 X
b1110001000000000 Y
1Z
b111110100010010000 [
b1111111110100110000 \
b1111110100011001100 ]
b1111110001000111100 ^
b1111110110100000100 _
b0000000001100001100 `
b0000001011101110000 a
b0000001111000000000 b
b0000001001100111000 c
1p
#299
0p
#301
b0000001111101011 %
b0010000001000010 &
b0000000111110101110 /
b0001000000100001000 0
b00000001111101011 1
b00010000001000010 2
b0000000011111010110000 5
b0000100000010000100000 6
b1111111100000101010000 7
b1111011111101111100000 8
b1111100011100001100 L
b0000100011001010000 M
b011 N
b10100110 R
b1111111101001100 S
b1111110100110000 T
b1111101001100000 U
b1111010011000000 V
b1110100110000000 W
b1101001100000000 X
b1010011000000000 Y
b111011100110110000 [
b1111111011110010000 \
b1111011101001100100 ]
b1111010011010110100 ^
b1111100011100001100 _
b0000000100100100100 `
b0000100011001010000 a
b0000101101000000000 b
b0000011100110101000 c
1p
#303
0p
#305
b1111010110101110 %
b0011000111010110 &
b1111101011010111010 /
b0001100011101011000 0
b11111010110101110 1
b00011000111010110 2
b1111110101101011100000 5
b0000110001110101100000 6
b0000001010010100100000 7
b1111001110001010100000 8
b0000000100111011010 L
b0000110000100000000 M
b100 N
b10011111 R
b1111111100111110 S
b1111110011111000 T
b1111100111110000 U
b1111001111100000 V
b1110011111000000 W
b1100111110000000 X
b1001111100000000 Y
b111011010000111000 [
b1111111011011101000 \
b1111011010011111010 ]
b1111001111111000010 ^
b1111100001010011110 _
b0000000100111011010 `
b0000100101111001000 a
b0000110000100000000 b
b0000011111000100100 c
1p
#307
0p
#309
b1111100000100101 %
b0100101000010110 &
b1111110000010010100 /
b0010010100001011000 0
b11111100000100101 1
b00100101000010110 2
b1111111000001001010000 5
b0001001010000101100000 6
b0000000111110110110000 7
b1110110101111010100000 8
b0000010010010111000 L
b0000001111000011100 M
b101 N
b11010001 R
b1111111110100010 S
b1111111010001000 T
b1111110100010000 U
b1111101000100000 V
b1111010001000000 W
b1110100010000000 X
b1101000100000000 Y
b111101101101001000 [
b1111111101110011000 \
b1111101101110100110 ]
b1111101000101011110 ^
b1111110001001000010 _
b0000000010011000110 `
b0000010010010111000 a
b0000010111100000000 b
b0000001111000011100 c
1p
#311
0p
#313
b0000000101010011 %
b0101000110011101 &
b0000000010101001100 /
b0010100011001110100 0
b00000000101010011 1
b00101000110011101 2
b0000000001010100110000 5
b0001010001100111010000 6
b1111111110101011010000 7
b1110101110011000110000 8
b1111110001000000000 L
b0000000001011010000 M
b110 N
b00011110 R
b0000000000111100 S
b0000000011110000 T
b0000000111100000 U
b0000001111000000 V
b0000011110000000 W
b0000111100000000 X
b0001111000000000 Y
0Z
b000001011101110000 [
b0000000001011010000 \
b0000001011100110100 ]
b0000001110111000100 ^
b0000001001011111100 _
b1111111110011110100 `
b1111110100010010000 a
b1111110001000000000 b
b1111110110011001000 c
1p
#315
0p
#317
b1111100111010011 %
b0101001001010001 &
b1111110011101001100 /
b0010100100101000100 0
b11111100111010011 1
b00101001001010001 2
b1111111001110100110000 5
b0001010010010100010000 6
b0000000110001011010000 7
b1110101101101011110000 8
b1111100011001011000 L
b0000100010110011100 M
b111 N
1Q
b01011010 R
b0000000010110100 S
b0000001011010000 T
b0000010110100000 U
b0000101101000000 V
b0001011010000000 W
b0010110100000000 X
b0101101000000000 Y
b000100011001010000 [
b0000000100001110000 \
b0000100010110011100 ]
b0000101100101001100 ^
b0000011100011110100 _
b1111111011011011100 `
b1111011100110110000 a
b1111010011000000000 b
b1111100011001011000 c
1p
#319
0p
#321
b1110101101101001 %
b0110001110111000 &
b1111010110110100100 /
b0011000111011100000 0
b11110101101101001 1
b00110001110111000 2
b1111101011011010010000 5
b0001100011101110000000 6
b0000010100100101110000 7
b1110011100010010000000 8
b0000000100100011000 L
b0000110000000111110 M
b000 N
0O
1P
0Q
b01100001 R
b0000000011000010 S
b0000001100001000 T
b0000011000010000 U
b0000110000100000 V
b0001100001000000 W
b0011000010000000 X
b0110000100000000 Y
b000100101111001000 [
b0000000100100011000 \
b0000100101100000110 ]
b0000110000000111110 ^
b0000011110101100010 _
b1111111011000100110 `
b1111011010000111000 a
b1111001111100000000 b
b1111100000111011100 c
1p
1r
#323
0p
#325
1:
1p
0r
#327
0p
#329
b01000000 '
b0000010100100101110000 3
b1110011100010010000000 4
b001 9
0;
b0000010100100101110000 >
b1110011100010010000000 ?
b00010000 @
1p
#331
0p
#333
b00110000 '
b0001111000010011110000 3
b1110110000110111110000 4
b010 9
b0000111100001001111000 >
b1111011000011011111000 ?
b00001000 @
1p
#335
0p
#337
b00101000 '
b0010011111110111111000 3
b1111101101000001101000 4
b011 9
b0000100111111101111110 >
b1111111011010000011010 ?
b00000100 @
1p
#339
0p
#341
b00100100 '
b0010100100100111011110 3
b0000010100111111100110 4
b100 9
b0000010100100100111011 >
b0000000010100111111100 ?
b00000010 @
1p
#343
0p
#345
b00100110 '
b0010100111001111011010 3
b0000000000011010101011 4
b101 9
1<
b0000001010011100111101 >
b0000000000000001101010 ?
b00000001 @
1p
#347
0p
#349
b00100111 '
1(
b0010100111010001000100 3
b1111110101111101101110 4
b110 9
0:
0<
b0000000101001110100010 >
b1111111111101011111011 ?
b10000000 @
1p
1s
