cardiff-b0/simWorkspace/booth2_v2/test.vcd
$version Generated by VerilatedVcd $end
$date Thu Dec 23 11:24:21 2021
 $end
$timescale   1ps $end

 $scope module TOP $end
  $var wire  1 . clk $end
  $var wire  8 * io_dinA [7:0] $end
  $var wire  8 + io_dinB [7:0] $end
  $var wire  1 ) io_din_vld $end
  $var wire 16 - io_dout [15:0] $end
  $var wire  1 , io_dout_vld $end
  $var wire  1 / reset $end
  $scope module booth2_v2 $end
   $var wire  8 1 AddB [7:0] $end
   $var wire  8 2 MinusB [7:0] $end
   $var wire  8 0 NegativeB [7:0] $end
   $var wire  8 + PositiveB [7:0] $end
   $var wire 17 4 aftershift [16:0] $end
   $var wire  8 3 beforeshift [7:0] $end
   $var wire  3 % cal_cnt [2:0] $end
   $var wire  1 & cal_en $end
   $var wire  1 5 cal_en_regNext $end
   $var wire  1 . clk $end
   $var wire  2 $ flag_bits [1:0] $end
   $var wire  8 * io_dinA [7:0] $end
   $var wire  8 + io_dinB [7:0] $end
   $var wire  1 ) io_din_vld $end
   $var wire 16 - io_dout [15:0] $end
   $var wire  1 , io_dout_vld $end
   $var wire  1 / reset $end
   $var wire 17 # shiftReg [16:0] $end
   $var wire  8 ( shiftReg_high [7:0] $end
   $var wire  9 ' shiftReg_low [8:0] $end
  $upscope $end
 $upscope $end
$enddefinitions $end


#0
b00000000000000000 #
b00 $
b000 %
0&
b000000000 '
b00000000 (
0)
b10001101 *
b10110111 +
1,
b0000000000000000 -
0.
1/
b01001001 0
b10110111 1
b01001001 2
b00000000 3
b00000000000000000 4
15
#80
0/
#85
0,
1.
05
#87
0.
#89
1.
#91
0.
#93
1.
#95
0.
#97
1.
#99
0.
#100
#101
1)
b00110111 *
b01011011 +
1.
b10100101 0
b01011011 1
b10100101 2
#103
0.
#105
b00000000001101110 #
b10 $
1&
b001101110 '
0)
b0000000000110111 -
1.
b10100101 3
b11010010100110111 4
#107
0.
#109
b11010010100110111 #
b11 $
b001 %
b100110111 '
b11010010 (
b1101001010011011 -
1.
b00101101 1
b01110111 2
b11010010 3
b11101001010011011 4
15
#111
0.
#113
b11101001010011011 #
b010 %
b010011011 '
b11101001 (
b1110100101001101 -
1.
b01000100 1
b10001110 2
b11101001 3
b11110100101001101 4
#115
0.
#117
b11110100101001101 #
b01 $
b011 %
b101001101 '
b11110100 (
b1111010010100110 -
1.
b01001111 1
b10011001 2
b01001111 3
b00100111110100110 4
#119
0.
#121
b00100111110100110 #
b10 $
b100 %
b110100110 '
b00100111 (
b0010011111010011 -
1.
b10000010 1
b11001100 2
b11001100 3
b11100110011010011 4
#123
0.
#125
b11100110011010011 #
b11 $
b101 %
b011010011 '
b11100110 (
b1110011001101001 -
1.
b01000001 1
b10001011 2
b11100110 3
b11110011001101001 4
#127
0.
#129
b11110011001101001 #
b01 $
b110 %
b001101001 '
b11110011 (
b1111001100110100 -
1.
b01001110 1
b10011000 2
b01001110 3
b00100111000110100 4
#131
0.
#133
b00100111000110100 #
b00 $
b111 %
b000110100 '
b00100111 (
b0010011100011010 -
1.
b10000010 1
b11001100 2
b00100111 3
b00010011100011010 4
#135
0.
#137
b00010011100011010 #
b10 $
b000 %
0&
b100011010 '
b00010011 (
1,
b0001001110001101 -
1.
b01101110 1
b10111000 2
b10111000 3
b11011100010001101 4
#139
0.
#141
0,
1.
05
